=============================================================================
=                     FLIPFLOP EXECUTION REPORTING                          =
=                TF Net Synthesis & #7 Code Generating                      =
=============================================================================

--------------------------------------------------------------
   Configuration
--------------------------------------------------------------

 XES file: _xes/abcd.xes
 Classifier: Event Name
 PDF file: -
 Graph file: -
 #7 file: _seven/seven_quotient_abcd.xml
 Optimization requested : YES (0, 0) 


--------------------------------------------------------------
   Initialisation of synthesis
--------------------------------------------------------------

 Process ending : Initialisation of synthesis
 Process time = 0.000002


--------------------------------------------------------------
   Main Synthesis
--------------------------------------------------------------

 Process ending : Main Synthesis
 Process time = 0.000113


--------------------------------------------------------------
   #7 Code Generating
--------------------------------------------------------------

 Process ending : #7 Code Generating
 Process time = 0.000621


--------------------------------------------------------------
   #7 Code Analysis
--------------------------------------------------------------

 Lenght max of path : 4
 Number of simple paths : 5
 Origin paths : 3
 New paths : 2
 Number of inclused traces / tested traces : 0 / 0
 Process ending : #7 Code Analysis
 Process time = 0.000039

