=============================================================================
=                     FLIPFLOP EXECUTION REPORTING                          =
=                TF Net Synthesis & #7 Code Generating                      =
=============================================================================

--------------------------------------------------------------
   Configuration
--------------------------------------------------------------

 XES file: _xes/xes_scalpel_2types_3scalpels_3rec.xes
 Classifier: AVAIROD Classifier
 PDF file: _pdf/scalpel_2types_3scalpels_3rec.pdf
 Graph file: -
 #7 file: -
 Optimization requested : NO 


--------------------------------------------------------------
   Initialisation of synthesis
--------------------------------------------------------------

 Process ending : Initialisation of synthesis
 Process time = 0.000422


--------------------------------------------------------------
   Main Synthesis
--------------------------------------------------------------

 Process ending : Main Synthesis
 Process time = 0.000197


--------------------------------------------------------------
   Elimination of redundent regions
--------------------------------------------------------------

 Process ending : Elimination of redundent regions
 Process time = 0.005949


--------------------------------------------------------------
   Merge of admissible regions with identical supports
--------------------------------------------------------------

 Process ending : Merge of admissible regions with identical supports
 Process time = 0.000294


--------------------------------------------------------------
   Display the T/F Net (and generate a pdf file)
--------------------------------------------------------------

 Process ending : Display the T/F Net (and generate a pdf file)
 Process time = 0.000538

