=============================================================================
=                     FLIPFLOP EXECUTION REPORTING                          =
=                TF Net Synthesis & #7 Code Generating                      =
=============================================================================

--------------------------------------------------------------
   Configuration
--------------------------------------------------------------

 XES file: _xes/xes_scalpel_2types_3scalpels_3rec.xes
 Classifier: AVAIROD Classifier
 PDF file: -
 Graph file: -
 #7 file: _seven/seven_scalpel_2types_3scalpels_3rec.xml
 Optimization requested : NO 


--------------------------------------------------------------
   Initialisation of synthesis
--------------------------------------------------------------

 Process ending : Initialisation of synthesis
 Process time = 0.000386


--------------------------------------------------------------
   Main Synthesis
--------------------------------------------------------------

 Process ending : Main Synthesis
 Process time = 0.000253


--------------------------------------------------------------
   #7 Code Generating
--------------------------------------------------------------

 Process ending : #7 Code Generating
 Process time = 0.000775


--------------------------------------------------------------
   #7 Code Analysis
--------------------------------------------------------------

 Lenght max of path : 12
 Number of simple paths : 16
 Origin paths : 3
 New paths : 13
 Number of inclused traces / tested traces : 0 / 0
 Process ending : #7 Code Analysis
 Process time = 0.000087

