
digraph seven {
node [shape=circle]

113 -> 78 [label="b"];
111 -> 113 [label="l"];
109 -> 111 [label="k"];
107 -> 109 [label="j"];
105 -> 107 [label="i"];
103 -> 105 [label="h"];
101 -> 103 [label="g"];
99 -> 101 [label="f"];
97 -> 99 [label="e"];
95 -> 97 [label="d"];
5 -> 95 [label="c"];
92 -> 6 [label="j"];
90 -> 92 [label="s"];
88 -> 90 [label="r"];
86 -> 88 [label="q"];
84 -> 86 [label="p"];
82 -> 84 [label="o"];
80 -> 82 [label="n"];
78 -> 80 [label="m"];
75 -> 77 [label="bm"];
73 -> 75 [label="bl"];
71 -> 73 [label="bk"];
69 -> 71 [label="bj"];
67 -> 69 [label="bi"];
65 -> 67 [label="bh"];
63 -> 65 [label="bg"];
61 -> 63 [label="bf"];
47 -> 61 [label="be"];
58 -> 47 [label="bd"];
45 -> 58 [label="bc"];
54 -> 47 [label="bb"];
49 -> 45 [label="bb"];
43 -> 54 [label="ba"];
51 -> 43 [label="bd"];
41 -> 51 [label="bc"];
41 -> 49 [label="ba"];
39 -> 47 [label="z"];
34 -> 45 [label="z"];
26 -> 43 [label="z"];
18 -> 41 [label="z"];
32 -> 39 [label="y"];
36 -> 32 [label="bd"];
30 -> 36 [label="bc"];
30 -> 34 [label="y"];
28 -> 32 [label="bb"];
20 -> 30 [label="bb"];
24 -> 28 [label="ba"];
24 -> 26 [label="y"];
22 -> 24 [label="bd"];
16 -> 22 [label="bc"];
16 -> 20 [label="ba"];
16 -> 18 [label="y"];
14 -> 16 [label="x"];
12 -> 14 [label="w"];
10 -> 12 [label="v"];
8 -> 10 [label="u"];
6 -> 8 [label="t"];
3 -> 5 [label="b"];
1 -> 3 [label="a"];

}
    