/////////////////////////////////////////////////////////////////////////////////////////////////////// 
//                                                                                                   // 
// ONTOLOGY : Set of events with associated data from ontology                                       // 
//            (including mapping with five references)                                               // 
//                                                                                                   // 
/////////////////////////////////////////////////////////////////////////////////////////////////////// 

 Number of events: 39

  Event 0 (a) : 
     { 
     action:verb : ontology label = "starting_action"  |  five reference = "UFR_Relation_Clap"
     action:affected-1 : ontology label = "starting_system"  |  five reference = "UFO_SystemManager"
     action:actuator : ontology label = ""  |  five reference = -
     action:affected : ontology label = "#starting_system"  |  five reference = -
     action:affected-number : ontology label = "1"  |  five reference = -
     action:description : ontology label = ""  |  five reference = -
     action:destination : ontology label = ""  |  five reference = -
     action:id : ontology label = 0  |  five reference = -
     action:instrument : ontology label = ""  |  five reference = -
     action:instrument-number : ontology label = "0"  |  five reference = -
     action:origin : ontology label = ""  |  five reference = -
     action:recipient : ontology label = ""  |  five reference = -
     action:state : ontology label = 0  |  five reference = -
     action:type : ontology label = ""  |  five reference = - 
     } 

  Event 1 (b) : 
     { 
     action:verb : ontology label = "grabbing_an_object"  |  five reference = "UFR_Relation_Pick"
     action:affected-1 : ontology label = "size_1_russian_doll"  |  five reference = "UFO_DollBottom3"
     action:actuator : ontology label = "Other_right-hand"  |  five reference = -
     action:affected : ontology label = "#size_1_russian_doll"  |  five reference = -
     action:affected-number : ontology label = "1"  |  five reference = -
     action:description : ontology label = ""  |  five reference = -
     action:destination : ontology label = ""  |  five reference = -
     action:id : ontology label = 4  |  five reference = -
     action:instrument : ontology label = ""  |  five reference = -
     action:instrument-number : ontology label = "0"  |  five reference = -
     action:origin : ontology label = ""  |  five reference = -
     action:recipient : ontology label = ""  |  five reference = -
     action:state : ontology label = 0  |  five reference = -
     action:type : ontology label = ""  |  five reference = - 
     } 

  Event 2 (c) : 
     { 
     action:verb : ontology label = "disassemble_an_object"  |  five reference = "UFR_Relation_Disassemble"
     action:origin : ontology label = "size_1_russian_doll"  |  five reference = "UFO_DollBottom3"
     action:affected-1 : ontology label = "top_of_size_1_russian_doll"  |  five reference = "UFO_DollTop3"
     action:actuator : ontology label = "Other_both-hands"  |  five reference = -
     action:affected : ontology label = "#top_of_size_1_russian_doll"  |  five reference = -
     action:affected-number : ontology label = "1"  |  five reference = -
     action:description : ontology label = ""  |  five reference = -
     action:destination : ontology label = ""  |  five reference = -
     action:id : ontology label = 5  |  five reference = -
     action:instrument : ontology label = ""  |  five reference = -
     action:instrument-number : ontology label = "0"  |  five reference = -
     action:recipient : ontology label = ""  |  five reference = -
     action:state : ontology label = 0  |  five reference = -
     action:type : ontology label = ""  |  five reference = - 
     } 

  Event 3 (d) : 
     { 
     action:verb : ontology label = "positioning_an_object_in_some_place"  |  five reference = "UFR_Relation_ReleaseOnGroup"
     action:destination : ontology label = "table"  |  five reference = "UFO_LocationGroup_Table"
     action:affected-1 : ontology label = "top_of_size_1_russian_doll"  |  five reference = "UFO_DollTop3"
     action:actuator : ontology label = "Other_left-hand"  |  five reference = -
     action:affected : ontology label = "#top_of_size_1_russian_doll"  |  five reference = -
     action:affected-number : ontology label = "1"  |  five reference = -
     action:description : ontology label = ""  |  five reference = -
     action:id : ontology label = 6  |  five reference = -
     action:instrument : ontology label = ""  |  five reference = -
     action:instrument-number : ontology label = "0"  |  five reference = -
     action:origin : ontology label = ""  |  five reference = -
     action:recipient : ontology label = ""  |  five reference = -
     action:state : ontology label = 0  |  five reference = -
     action:type : ontology label = ""  |  five reference = - 
     } 

  Event 4 (e) : 
     { 
     action:verb : ontology label = "grabbing_an_object"  |  five reference = "UFR_Relation_Pick"
     action:affected-1 : ontology label = "smallest_russian_doll"  |  five reference = "UFO_Doll0"
     action:actuator : ontology label = "Other_left-hand"  |  five reference = -
     action:affected : ontology label = "#smallest_russian_doll"  |  five reference = -
     action:affected-number : ontology label = "1"  |  five reference = -
     action:description : ontology label = ""  |  five reference = -
     action:destination : ontology label = ""  |  five reference = -
     action:id : ontology label = 7  |  five reference = -
     action:instrument : ontology label = ""  |  five reference = -
     action:instrument-number : ontology label = "0"  |  five reference = -
     action:origin : ontology label = ""  |  five reference = -
     action:recipient : ontology label = ""  |  five reference = -
     action:state : ontology label = 0  |  five reference = -
     action:type : ontology label = ""  |  five reference = - 
     } 

  Event 5 (f) : 
     { 
     action:verb : ontology label = "fixing_an_object"  |  five reference = "UFR_Relation_Assemble"
     action:destination : ontology label = "bottom_of_size_1_russian_doll"  |  five reference = "UFO_DollBottom3"
     action:affected-1 : ontology label = "smallest_russian_doll"  |  five reference = "UFO_Doll0"
     action:actuator : ontology label = "Other_both-hands"  |  five reference = -
     action:affected : ontology label = "#smallest_russian_doll"  |  five reference = -
     action:affected-number : ontology label = "1"  |  five reference = -
     action:description : ontology label = ""  |  five reference = -
     action:id : ontology label = 8  |  five reference = -
     action:instrument : ontology label = ""  |  five reference = -
     action:instrument-number : ontology label = "0"  |  five reference = -
     action:origin : ontology label = ""  |  five reference = -
     action:recipient : ontology label = ""  |  five reference = -
     action:state : ontology label = 0  |  five reference = -
     action:type : ontology label = ""  |  five reference = - 
     } 

  Event 6 (g) : 
     { 
     action:verb : ontology label = "grabbing_an_object"  |  five reference = "UFR_Relation_Pick"
     action:affected-1 : ontology label = "top_of_size_1_russian_doll"  |  five reference = "UFO_DollTop3"
     action:actuator : ontology label = "Other_left-hand"  |  five reference = -
     action:affected : ontology label = "#top_of_size_1_russian_doll"  |  five reference = -
     action:affected-number : ontology label = "1"  |  five reference = -
     action:description : ontology label = ""  |  five reference = -
     action:destination : ontology label = ""  |  five reference = -
     action:id : ontology label = 9  |  five reference = -
     action:instrument : ontology label = ""  |  five reference = -
     action:instrument-number : ontology label = "0"  |  five reference = -
     action:origin : ontology label = ""  |  five reference = -
     action:recipient : ontology label = ""  |  five reference = -
     action:state : ontology label = 0  |  five reference = -
     action:type : ontology label = ""  |  five reference = - 
     } 

  Event 7 (h) : 
     { 
     action:verb : ontology label = "fixing_an_object"  |  five reference = "UFR_Relation_Assemble"
     action:destination : ontology label = "bottom_of_size_1_russian_doll"  |  five reference = "UFO_DollBottom3"
     action:affected-1 : ontology label = "top_of_size_1_russian_doll"  |  five reference = "UFO_DollTop3"
     action:actuator : ontology label = "Other_both-hands"  |  five reference = -
     action:affected : ontology label = "#top_of_size_1_russian_doll"  |  five reference = -
     action:affected-number : ontology label = "1"  |  five reference = -
     action:description : ontology label = ""  |  five reference = -
     action:id : ontology label = 10  |  five reference = -
     action:instrument : ontology label = ""  |  five reference = -
     action:instrument-number : ontology label = "0"  |  five reference = -
     action:origin : ontology label = ""  |  five reference = -
     action:recipient : ontology label = ""  |  five reference = -
     action:state : ontology label = 0  |  five reference = -
     action:type : ontology label = ""  |  five reference = - 
     } 

  Event 8 (i) : 
     { 
     action:verb : ontology label = "positioning_an_object_in_some_place"  |  five reference = "UFR_Relation_ReleaseOnGroup"
     action:destination : ontology label = "table"  |  five reference = "UFO_LocationGroup_Table"
     action:affected-1 : ontology label = "size_1_russian_doll"  |  five reference = "UFO_DollBottom3"
     action:actuator : ontology label = "Other_right-hand"  |  five reference = -
     action:affected : ontology label = "#size_1_russian_doll"  |  five reference = -
     action:affected-number : ontology label = "1"  |  five reference = -
     action:description : ontology label = ""  |  five reference = -
     action:id : ontology label = 11  |  five reference = -
     action:instrument : ontology label = ""  |  five reference = -
     action:instrument-number : ontology label = "0"  |  five reference = -
     action:origin : ontology label = ""  |  five reference = -
     action:recipient : ontology label = ""  |  five reference = -
     action:state : ontology label = 0  |  five reference = -
     action:type : ontology label = ""  |  five reference = - 
     } 

  Event 9 (j) : 
     { 
     action:verb : ontology label = "grabbing_an_object"  |  five reference = "UFR_Relation_Pick"
     action:affected-1 : ontology label = "size_2_russian_doll"  |  five reference = "UFO_DollBottom5"
     action:actuator : ontology label = "Other_right-hand"  |  five reference = -
     action:affected : ontology label = "#size_2_russian_doll"  |  five reference = -
     action:affected-number : ontology label = "1"  |  five reference = -
     action:description : ontology label = ""  |  five reference = -
     action:destination : ontology label = ""  |  five reference = -
     action:id : ontology label = 12  |  five reference = -
     action:instrument : ontology label = ""  |  five reference = -
     action:instrument-number : ontology label = "0"  |  five reference = -
     action:origin : ontology label = ""  |  five reference = -
     action:recipient : ontology label = ""  |  five reference = -
     action:state : ontology label = 0  |  five reference = -
     action:type : ontology label = ""  |  five reference = - 
     } 

  Event 10 (k) : 
     { 
     action:verb : ontology label = "disassemble_an_object"  |  five reference = "UFR_Relation_Disassemble"
     action:origin : ontology label = "size_2_russian_doll"  |  five reference = "UFO_DollBottom5"
     action:affected-1 : ontology label = "top_of_size_2_russian_doll"  |  five reference = "UFO_DollTop5"
     action:actuator : ontology label = "Other_both-hands"  |  five reference = -
     action:affected : ontology label = "#top_of_size_2_russian_doll"  |  five reference = -
     action:affected-number : ontology label = "1"  |  five reference = -
     action:description : ontology label = ""  |  five reference = -
     action:destination : ontology label = ""  |  five reference = -
     action:id : ontology label = 13  |  five reference = -
     action:instrument : ontology label = ""  |  five reference = -
     action:instrument-number : ontology label = "0"  |  five reference = -
     action:recipient : ontology label = ""  |  five reference = -
     action:state : ontology label = 0  |  five reference = -
     action:type : ontology label = ""  |  five reference = - 
     } 

  Event 11 (l) : 
     { 
     action:verb : ontology label = "positioning_an_object_in_some_place"  |  five reference = "UFR_Relation_ReleaseOnGroup"
     action:destination : ontology label = "table"  |  five reference = "UFO_LocationGroup_Table"
     action:affected-1 : ontology label = "top_of_size_2_russian_doll"  |  five reference = "UFO_DollTop5"
     action:actuator : ontology label = "Other_left-hand"  |  five reference = -
     action:affected : ontology label = "#top_of_size_2_russian_doll"  |  five reference = -
     action:affected-number : ontology label = "1"  |  five reference = -
     action:description : ontology label = ""  |  five reference = -
     action:id : ontology label = 14  |  five reference = -
     action:instrument : ontology label = ""  |  five reference = -
     action:instrument-number : ontology label = "0"  |  five reference = -
     action:origin : ontology label = ""  |  five reference = -
     action:recipient : ontology label = ""  |  five reference = -
     action:state : ontology label = 0  |  five reference = -
     action:type : ontology label = ""  |  five reference = - 
     } 

  Event 12 (m) : 
     { 
     action:verb : ontology label = "fixing_an_object"  |  five reference = "UFR_Relation_Assemble"
     action:destination : ontology label = "bottom_of_size_2_russian_doll"  |  five reference = "UFO_DollBottom5"
     action:affected-1 : ontology label = "size_1_russian_doll"  |  five reference = "UFO_DollBottom3"
     action:actuator : ontology label = "Other_both-hands"  |  five reference = -
     action:affected : ontology label = "#size_1_russian_doll"  |  five reference = -
     action:affected-number : ontology label = "1"  |  five reference = -
     action:description : ontology label = ""  |  five reference = -
     action:id : ontology label = 16  |  five reference = -
     action:instrument : ontology label = ""  |  five reference = -
     action:instrument-number : ontology label = "0"  |  five reference = -
     action:origin : ontology label = ""  |  five reference = -
     action:recipient : ontology label = ""  |  five reference = -
     action:state : ontology label = 0  |  five reference = -
     action:type : ontology label = ""  |  five reference = - 
     } 

  Event 13 (n) : 
     { 
     action:verb : ontology label = "grabbing_an_object"  |  five reference = "UFR_Relation_Pick"
     action:affected-1 : ontology label = "top_of_size_2_russian_doll"  |  five reference = "UFO_DollTop5"
     action:actuator : ontology label = "Other_left-hand"  |  five reference = -
     action:affected : ontology label = "#top_of_size_2_russian_doll"  |  five reference = -
     action:affected-number : ontology label = "1"  |  five reference = -
     action:description : ontology label = ""  |  five reference = -
     action:destination : ontology label = ""  |  five reference = -
     action:id : ontology label = 17  |  five reference = -
     action:instrument : ontology label = ""  |  five reference = -
     action:instrument-number : ontology label = "0"  |  five reference = -
     action:origin : ontology label = ""  |  five reference = -
     action:recipient : ontology label = ""  |  five reference = -
     action:state : ontology label = 0  |  five reference = -
     action:type : ontology label = ""  |  five reference = - 
     } 

  Event 14 (o) : 
     { 
     action:verb : ontology label = "fixing_an_object"  |  five reference = "UFR_Relation_Assemble"
     action:destination : ontology label = "bottom_of_size_2_russian_doll"  |  five reference = "UFO_DollBottom5"
     action:affected-1 : ontology label = "top_of_size_2_russian_doll"  |  five reference = "UFO_DollTop5"
     action:actuator : ontology label = "Other_both-hands"  |  five reference = -
     action:affected : ontology label = "#top_of_size_2_russian_doll"  |  five reference = -
     action:affected-number : ontology label = "1"  |  five reference = -
     action:description : ontology label = ""  |  five reference = -
     action:id : ontology label = 18  |  five reference = -
     action:instrument : ontology label = ""  |  five reference = -
     action:instrument-number : ontology label = "0"  |  five reference = -
     action:origin : ontology label = ""  |  five reference = -
     action:recipient : ontology label = ""  |  five reference = -
     action:state : ontology label = 0  |  five reference = -
     action:type : ontology label = ""  |  five reference = - 
     } 

  Event 15 (p) : 
     { 
     action:verb : ontology label = "positioning_an_object_in_some_place"  |  five reference = "UFR_Relation_ReleaseOnGroup"
     action:destination : ontology label = "table"  |  five reference = "UFO_LocationGroup_Table"
     action:affected-1 : ontology label = "size_2_russian_doll"  |  five reference = "UFO_DollBottom5"
     action:actuator : ontology label = "Other_right-hand"  |  five reference = -
     action:affected : ontology label = "#size_2_russian_doll"  |  five reference = -
     action:affected-number : ontology label = "1"  |  five reference = -
     action:description : ontology label = ""  |  five reference = -
     action:id : ontology label = 19  |  five reference = -
     action:instrument : ontology label = ""  |  five reference = -
     action:instrument-number : ontology label = "0"  |  five reference = -
     action:origin : ontology label = ""  |  five reference = -
     action:recipient : ontology label = ""  |  five reference = -
     action:state : ontology label = 0  |  five reference = -
     action:type : ontology label = ""  |  five reference = - 
     } 

  Event 16 (q) : 
     { 
     action:verb : ontology label = "grabbing_an_object"  |  five reference = "UFR_Relation_Pick"
     action:affected-1 : ontology label = "size_3_russian_doll"  |  five reference = "UFO_DollBottom7"
     action:actuator : ontology label = "Other_right-hand"  |  five reference = -
     action:affected : ontology label = "#size_3_russian_doll"  |  five reference = -
     action:affected-number : ontology label = "1"  |  five reference = -
     action:description : ontology label = ""  |  five reference = -
     action:destination : ontology label = ""  |  five reference = -
     action:id : ontology label = 20  |  five reference = -
     action:instrument : ontology label = ""  |  five reference = -
     action:instrument-number : ontology label = "0"  |  five reference = -
     action:origin : ontology label = ""  |  five reference = -
     action:recipient : ontology label = ""  |  five reference = -
     action:state : ontology label = 0  |  five reference = -
     action:type : ontology label = ""  |  five reference = - 
     } 

  Event 17 (r) : 
     { 
     action:verb : ontology label = "disassemble_an_object"  |  five reference = "UFR_Relation_Disassemble"
     action:origin : ontology label = "size_3_russian_doll"  |  five reference = "UFO_DollBottom7"
     action:affected-1 : ontology label = "top_of_size_3_russian_doll"  |  five reference = "UFO_DollTop7"
     action:actuator : ontology label = "Other_both-hands"  |  five reference = -
     action:affected : ontology label = "#top_of_size_3_russian_doll"  |  five reference = -
     action:affected-number : ontology label = "1"  |  five reference = -
     action:description : ontology label = ""  |  five reference = -
     action:destination : ontology label = ""  |  five reference = -
     action:id : ontology label = 21  |  five reference = -
     action:instrument : ontology label = ""  |  five reference = -
     action:instrument-number : ontology label = "0"  |  five reference = -
     action:recipient : ontology label = ""  |  five reference = -
     action:state : ontology label = 0  |  five reference = -
     action:type : ontology label = ""  |  five reference = - 
     } 

  Event 18 (s) : 
     { 
     action:verb : ontology label = "positioning_an_object_in_some_place"  |  five reference = "UFR_Relation_ReleaseOnGroup"
     action:destination : ontology label = "table"  |  five reference = "UFO_LocationGroup_Table"
     action:affected-1 : ontology label = "top_of_size_3_russian_doll"  |  five reference = "UFO_DollTop7"
     action:actuator : ontology label = "Other_left-hand"  |  five reference = -
     action:affected : ontology label = "#top_of_size_3_russian_doll"  |  five reference = -
     action:affected-number : ontology label = "1"  |  five reference = -
     action:description : ontology label = ""  |  five reference = -
     action:id : ontology label = 22  |  five reference = -
     action:instrument : ontology label = ""  |  five reference = -
     action:instrument-number : ontology label = "0"  |  five reference = -
     action:origin : ontology label = ""  |  five reference = -
     action:recipient : ontology label = ""  |  five reference = -
     action:state : ontology label = 0  |  five reference = -
     action:type : ontology label = ""  |  five reference = - 
     } 

  Event 19 (t) : 
     { 
     action:verb : ontology label = "fixing_an_object"  |  five reference = "UFR_Relation_Assemble"
     action:destination : ontology label = "bottom_of_size_3_russian_doll"  |  five reference = "UFO_DollBottom7"
     action:affected-1 : ontology label = "size_2_russian_doll"  |  five reference = "UFO_DollBottom5"
     action:actuator : ontology label = "Other_both-hands"  |  five reference = -
     action:affected : ontology label = "#size_2_russian_doll"  |  five reference = -
     action:affected-number : ontology label = "1"  |  five reference = -
     action:description : ontology label = ""  |  five reference = -
     action:id : ontology label = 24  |  five reference = -
     action:instrument : ontology label = ""  |  five reference = -
     action:instrument-number : ontology label = "0"  |  five reference = -
     action:origin : ontology label = ""  |  five reference = -
     action:recipient : ontology label = ""  |  five reference = -
     action:state : ontology label = 0  |  five reference = -
     action:type : ontology label = ""  |  five reference = - 
     } 

  Event 20 (u) : 
     { 
     action:verb : ontology label = "grabbing_an_object"  |  five reference = "UFR_Relation_Pick"
     action:affected-1 : ontology label = "top_of_size_3_russian_doll"  |  five reference = "UFO_DollTop7"
     action:actuator : ontology label = "Other_left-hand"  |  five reference = -
     action:affected : ontology label = "#top_of_size_3_russian_doll"  |  five reference = -
     action:affected-number : ontology label = "1"  |  five reference = -
     action:description : ontology label = ""  |  five reference = -
     action:destination : ontology label = ""  |  five reference = -
     action:id : ontology label = 25  |  five reference = -
     action:instrument : ontology label = ""  |  five reference = -
     action:instrument-number : ontology label = "0"  |  five reference = -
     action:origin : ontology label = ""  |  five reference = -
     action:recipient : ontology label = ""  |  five reference = -
     action:state : ontology label = 0  |  five reference = -
     action:type : ontology label = ""  |  five reference = - 
     } 

  Event 21 (v) : 
     { 
     action:verb : ontology label = "fixing_an_object"  |  five reference = "UFR_Relation_Assemble"
     action:destination : ontology label = "bottom_of_size_3_russian_doll"  |  five reference = "UFO_DollBottom7"
     action:affected-1 : ontology label = "top_of_size_3_russian_doll"  |  five reference = "UFO_DollTop7"
     action:actuator : ontology label = "Other_both-hands"  |  five reference = -
     action:affected : ontology label = "#top_of_size_3_russian_doll"  |  five reference = -
     action:affected-number : ontology label = "1"  |  five reference = -
     action:description : ontology label = ""  |  five reference = -
     action:id : ontology label = 26  |  five reference = -
     action:instrument : ontology label = ""  |  five reference = -
     action:instrument-number : ontology label = "0"  |  five reference = -
     action:origin : ontology label = ""  |  five reference = -
     action:recipient : ontology label = ""  |  five reference = -
     action:state : ontology label = 0  |  five reference = -
     action:type : ontology label = ""  |  five reference = - 
     } 

  Event 22 (w) : 
     { 
     action:verb : ontology label = "positioning_an_object_in_some_place"  |  five reference = "UFR_Relation_ReleaseOnGroup"
     action:destination : ontology label = "table"  |  five reference = "UFO_LocationGroup_Table"
     action:affected-1 : ontology label = "size_3_russian_doll"  |  five reference = "UFO_DollBottom7"
     action:actuator : ontology label = "Other_right-hand"  |  five reference = -
     action:affected : ontology label = "#size_3_russian_doll"  |  five reference = -
     action:affected-number : ontology label = "1"  |  five reference = -
     action:description : ontology label = ""  |  five reference = -
     action:id : ontology label = 27  |  five reference = -
     action:instrument : ontology label = ""  |  five reference = -
     action:instrument-number : ontology label = "0"  |  five reference = -
     action:origin : ontology label = ""  |  five reference = -
     action:recipient : ontology label = ""  |  five reference = -
     action:state : ontology label = 0  |  five reference = -
     action:type : ontology label = ""  |  five reference = - 
     } 

  Event 23 (x) : 
     { 
     action:verb : ontology label = "grabbing_an_object"  |  five reference = "UFR_Relation_Pick"
     action:affected-1 : ontology label = "sugar_tong"  |  five reference = "UFO_SugarTong"
     action:actuator : ontology label = "Other_right-hand"  |  five reference = -
     action:affected : ontology label = "#sugar_tong"  |  five reference = -
     action:affected-number : ontology label = "1"  |  five reference = -
     action:description : ontology label = ""  |  five reference = -
     action:destination : ontology label = ""  |  five reference = -
     action:id : ontology label = 28  |  five reference = -
     action:instrument : ontology label = ""  |  five reference = -
     action:instrument-number : ontology label = "0"  |  five reference = -
     action:origin : ontology label = ""  |  five reference = -
     action:recipient : ontology label = ""  |  five reference = -
     action:state : ontology label = 0  |  five reference = -
     action:type : ontology label = ""  |  five reference = - 
     } 

  Event 24 (y) : 
     { 
     action:verb : ontology label = "grabbing_an_object_with_an_instrument"  |  five reference = "UFR_Relation_PickWithTool"
     action:instrument-1 : ontology label = "sugar_tong"  |  five reference = "UFO_SugarTong"
     action:affected-1 : ontology label = "sugar_cube_1"  |  five reference = "UFO_SugarCube_1"
     action:actuator : ontology label = "Other_right-hand"  |  five reference = -
     action:affected : ontology label = "#sugar_cube_1"  |  five reference = -
     action:affected-number : ontology label = "1"  |  five reference = -
     action:description : ontology label = ""  |  five reference = -
     action:destination : ontology label = ""  |  five reference = -
     action:id : ontology label = 29  |  five reference = -
     action:instrument : ontology label = "#sugar_tong"  |  five reference = -
     action:instrument-number : ontology label = "1"  |  five reference = -
     action:origin : ontology label = ""  |  five reference = -
     action:recipient : ontology label = ""  |  five reference = -
     action:state : ontology label = 0  |  five reference = -
     action:type : ontology label = ""  |  five reference = - 
     } 

  Event 25 (z) : 
     { 
     action:verb : ontology label = "positioning_an_object_in_some_place_with_an_instrument"  |  five reference = "UFR_Relation_ReleaseWithTool"
     action:instrument-1 : ontology label = "sugar_tong"  |  five reference = "UFO_SugarTong"
     action:destination : ontology label = "tea_cup_location"  |  five reference = "UFO_Location_TeaCup"
     action:affected-1 : ontology label = "sugar_cube_1"  |  five reference = "UFO_SugarCube_1"
     action:actuator : ontology label = "Other_right-hand"  |  five reference = -
     action:affected : ontology label = "#sugar_cube_1"  |  five reference = -
     action:affected-number : ontology label = "1"  |  five reference = -
     action:description : ontology label = ""  |  five reference = -
     action:id : ontology label = 30  |  five reference = -
     action:instrument : ontology label = "#sugar_tong"  |  five reference = -
     action:instrument-number : ontology label = "1"  |  five reference = -
     action:origin : ontology label = ""  |  five reference = -
     action:recipient : ontology label = ""  |  five reference = -
     action:state : ontology label = 0  |  five reference = -
     action:type : ontology label = ""  |  five reference = - 
     } 

  Event 26 (ba) : 
     { 
     action:verb : ontology label = "grabbing_an_object_with_an_instrument"  |  five reference = "UFR_Relation_PickWithTool"
     action:instrument-1 : ontology label = "sugar_tong"  |  five reference = "UFO_SugarTong"
     action:affected-1 : ontology label = "sugar_cube_2"  |  five reference = "UFO_SugarCube_2"
     action:actuator : ontology label = "Other_right-hand"  |  five reference = -
     action:affected : ontology label = "#sugar_cube_2"  |  five reference = -
     action:affected-number : ontology label = "1"  |  five reference = -
     action:description : ontology label = ""  |  five reference = -
     action:destination : ontology label = ""  |  five reference = -
     action:id : ontology label = 31  |  five reference = -
     action:instrument : ontology label = "#sugar_tong"  |  five reference = -
     action:instrument-number : ontology label = "1"  |  five reference = -
     action:origin : ontology label = ""  |  five reference = -
     action:recipient : ontology label = ""  |  five reference = -
     action:state : ontology label = 0  |  five reference = -
     action:type : ontology label = ""  |  five reference = - 
     } 

  Event 27 (bb) : 
     { 
     action:verb : ontology label = "positioning_an_object_in_some_place_with_an_instrument"  |  five reference = "UFR_Relation_ReleaseWithTool"
     action:instrument-1 : ontology label = "sugar_tong"  |  five reference = "UFO_SugarTong"
     action:destination : ontology label = "tea_cup_location"  |  five reference = "UFO_Location_TeaCup"
     action:affected-1 : ontology label = "sugar_cube_2"  |  five reference = "UFO_SugarCube_2"
     action:actuator : ontology label = "Other_right-hand"  |  five reference = -
     action:affected : ontology label = "#sugar_cube_2"  |  five reference = -
     action:affected-number : ontology label = "1"  |  five reference = -
     action:description : ontology label = ""  |  five reference = -
     action:id : ontology label = 32  |  five reference = -
     action:instrument : ontology label = "#sugar_tong"  |  five reference = -
     action:instrument-number : ontology label = "1"  |  five reference = -
     action:origin : ontology label = ""  |  five reference = -
     action:recipient : ontology label = ""  |  five reference = -
     action:state : ontology label = 0  |  five reference = -
     action:type : ontology label = ""  |  five reference = - 
     } 

  Event 28 (bc) : 
     { 
     action:verb : ontology label = "grabbing_an_object_with_an_instrument"  |  five reference = "UFR_Relation_PickWithTool"
     action:instrument-1 : ontology label = "sugar_tong"  |  five reference = "UFO_SugarTong"
     action:affected-1 : ontology label = "sugar_cube_3"  |  five reference = "UFO_SugarCube_3"
     action:actuator : ontology label = "Other_right-hand"  |  five reference = -
     action:affected : ontology label = "#sugar_cube_3"  |  five reference = -
     action:affected-number : ontology label = "1"  |  five reference = -
     action:description : ontology label = ""  |  five reference = -
     action:destination : ontology label = ""  |  five reference = -
     action:id : ontology label = 33  |  five reference = -
     action:instrument : ontology label = "#sugar_tong"  |  five reference = -
     action:instrument-number : ontology label = "1"  |  five reference = -
     action:origin : ontology label = ""  |  five reference = -
     action:recipient : ontology label = ""  |  five reference = -
     action:state : ontology label = 0  |  five reference = -
     action:type : ontology label = ""  |  five reference = - 
     } 

  Event 29 (bd) : 
     { 
     action:verb : ontology label = "positioning_an_object_in_some_place_with_an_instrument"  |  five reference = "UFR_Relation_ReleaseWithTool"
     action:instrument-1 : ontology label = "sugar_tong"  |  five reference = "UFO_SugarTong"
     action:destination : ontology label = "tea_cup_location"  |  five reference = "UFO_Location_TeaCup"
     action:affected-1 : ontology label = "sugar_cube_3"  |  five reference = "UFO_SugarCube_3"
     action:actuator : ontology label = "Other_right-hand"  |  five reference = -
     action:affected : ontology label = "#sugar_cube_3"  |  five reference = -
     action:affected-number : ontology label = "1"  |  five reference = -
     action:description : ontology label = ""  |  five reference = -
     action:id : ontology label = 34  |  five reference = -
     action:instrument : ontology label = "#sugar_tong"  |  five reference = -
     action:instrument-number : ontology label = "1"  |  five reference = -
     action:origin : ontology label = ""  |  five reference = -
     action:recipient : ontology label = ""  |  five reference = -
     action:state : ontology label = 0  |  five reference = -
     action:type : ontology label = ""  |  five reference = - 
     } 

  Event 30 (be) : 
     { 
     action:verb : ontology label = "positioning_an_object_in_some_place"  |  five reference = "UFR_Relation_ReleaseOnGroup"
     action:destination : ontology label = "towel_location"  |  five reference = "UFO_Location_Towel"
     action:affected-1 : ontology label = "sugar_tong"  |  five reference = "UFO_SugarTong"
     action:actuator : ontology label = "Other_right-hand"  |  five reference = -
     action:affected : ontology label = "#sugar_tong"  |  five reference = -
     action:affected-number : ontology label = "1"  |  five reference = -
     action:description : ontology label = ""  |  five reference = -
     action:id : ontology label = 35  |  five reference = -
     action:instrument : ontology label = ""  |  five reference = -
     action:instrument-number : ontology label = "0"  |  five reference = -
     action:origin : ontology label = ""  |  five reference = -
     action:recipient : ontology label = ""  |  five reference = -
     action:state : ontology label = 0  |  five reference = -
     action:type : ontology label = ""  |  five reference = - 
     } 

  Event 31 (bf) : 
     { 
     action:verb : ontology label = "folding_a_drape_to_cover_its_content"  |  five reference = "UFR_Relation_Fold"
     action:affected-1 : ontology label = "towel"  |  five reference = "UFO_Towel"
     action:actuator : ontology label = "Other_right-hand"  |  five reference = -
     action:affected : ontology label = "#towel"  |  five reference = -
     action:affected-number : ontology label = "1"  |  five reference = -
     action:description : ontology label = ""  |  five reference = -
     action:destination : ontology label = ""  |  five reference = -
     action:id : ontology label = 36  |  five reference = -
     action:instrument : ontology label = ""  |  five reference = -
     action:instrument-number : ontology label = "0"  |  five reference = -
     action:origin : ontology label = ""  |  five reference = -
     action:recipient : ontology label = ""  |  five reference = -
     action:state : ontology label = 0  |  five reference = -
     action:type : ontology label = ""  |  five reference = - 
     } 

  Event 32 (bg) : 
     { 
     action:verb : ontology label = "grabbing_an_object"  |  five reference = "UFR_Relation_Pick"
     action:affected-1 : ontology label = "scissors"  |  five reference = "UFO_Scissors"
     action:actuator : ontology label = "Other_right-hand"  |  five reference = -
     action:affected : ontology label = "#scissors"  |  five reference = -
     action:affected-number : ontology label = "1"  |  five reference = -
     action:description : ontology label = ""  |  five reference = -
     action:destination : ontology label = ""  |  five reference = -
     action:id : ontology label = 37  |  five reference = -
     action:instrument : ontology label = ""  |  five reference = -
     action:instrument-number : ontology label = "0"  |  five reference = -
     action:origin : ontology label = ""  |  five reference = -
     action:recipient : ontology label = ""  |  five reference = -
     action:state : ontology label = 0  |  five reference = -
     action:type : ontology label = ""  |  five reference = - 
     } 

  Event 33 (bh) : 
     { 
     action:verb : ontology label = "grabbing_an_object"  |  five reference = "UFR_Relation_Pick"
     action:affected-1 : ontology label = "paper_card"  |  five reference = "UFO_PaperCard"
     action:actuator : ontology label = "Other_left-hand"  |  five reference = -
     action:affected : ontology label = "#paper_card"  |  five reference = -
     action:affected-number : ontology label = "1"  |  five reference = -
     action:description : ontology label = ""  |  five reference = -
     action:destination : ontology label = ""  |  five reference = -
     action:id : ontology label = 38  |  five reference = -
     action:instrument : ontology label = ""  |  five reference = -
     action:instrument-number : ontology label = "0"  |  five reference = -
     action:origin : ontology label = ""  |  five reference = -
     action:recipient : ontology label = ""  |  five reference = -
     action:state : ontology label = 0  |  five reference = -
     action:type : ontology label = ""  |  five reference = - 
     } 

  Event 34 (bi) : 
     { 
     action:verb : ontology label = "cutting_an_object"  |  five reference = "UFR_Relation_Cut"
     action:instrument-1 : ontology label = "scissors"  |  five reference = "UFO_Scissors"
     action:affected-1 : ontology label = "paper_card"  |  five reference = "UFO_PaperCard"
     action:actuator : ontology label = "Other_both-hands"  |  five reference = -
     action:affected : ontology label = "#paper_card"  |  five reference = -
     action:affected-number : ontology label = "1"  |  five reference = -
     action:description : ontology label = ""  |  five reference = -
     action:destination : ontology label = ""  |  five reference = -
     action:id : ontology label = 39  |  five reference = -
     action:instrument : ontology label = "#scissors"  |  five reference = -
     action:instrument-number : ontology label = "1"  |  five reference = -
     action:origin : ontology label = ""  |  five reference = -
     action:recipient : ontology label = ""  |  five reference = -
     action:state : ontology label = 0  |  five reference = -
     action:type : ontology label = ""  |  five reference = - 
     } 

  Event 35 (bj) : 
     { 
     action:verb : ontology label = "positioning_an_object_in_some_place"  |  five reference = "UFR_Relation_ReleaseOnGroup"
     action:destination : ontology label = "tray_location"  |  five reference = "UFO_LocationGroup_Tray"
     action:affected-1 : ontology label = "paper_card"  |  five reference = "UFO_PaperCard"
     action:actuator : ontology label = "Other_left-hand"  |  five reference = -
     action:affected : ontology label = "#paper_card"  |  five reference = -
     action:affected-number : ontology label = "1"  |  five reference = -
     action:description : ontology label = ""  |  five reference = -
     action:id : ontology label = 40  |  five reference = -
     action:instrument : ontology label = ""  |  five reference = -
     action:instrument-number : ontology label = "0"  |  five reference = -
     action:origin : ontology label = ""  |  five reference = -
     action:recipient : ontology label = ""  |  five reference = -
     action:state : ontology label = 0  |  five reference = -
     action:type : ontology label = ""  |  five reference = - 
     } 

  Event 36 (bk) : 
     { 
     action:verb : ontology label = "positioning_an_object_in_some_place"  |  five reference = "UFR_Relation_ReleaseOnGroup"
     action:destination : ontology label = "tray_location"  |  five reference = "UFO_LocationGroup_Tray"
     action:affected-1 : ontology label = "scissors"  |  five reference = "UFO_Scissors"
     action:actuator : ontology label = "Other_right-hand"  |  five reference = -
     action:affected : ontology label = "#scissors"  |  five reference = -
     action:affected-number : ontology label = "1"  |  five reference = -
     action:description : ontology label = ""  |  five reference = -
     action:id : ontology label = 41  |  five reference = -
     action:instrument : ontology label = ""  |  five reference = -
     action:instrument-number : ontology label = "0"  |  five reference = -
     action:origin : ontology label = ""  |  five reference = -
     action:recipient : ontology label = ""  |  five reference = -
     action:state : ontology label = 0  |  five reference = -
     action:type : ontology label = ""  |  five reference = - 
     } 

  Event 37 (bl) : 
     { 
     action:verb : ontology label = "grabbing_an_object_with_both_hands"  |  five reference = "UFR_Relation_TwoHandsGrab"
     action:affected-1 : ontology label = "tray"  |  five reference = "UFO_Tray"
     action:actuator : ontology label = "Other_both-hands"  |  five reference = -
     action:affected : ontology label = "#tray"  |  five reference = -
     action:affected-number : ontology label = "1"  |  five reference = -
     action:description : ontology label = ""  |  five reference = -
     action:destination : ontology label = ""  |  five reference = -
     action:id : ontology label = 42  |  five reference = -
     action:instrument : ontology label = ""  |  five reference = -
     action:instrument-number : ontology label = "0"  |  five reference = -
     action:origin : ontology label = ""  |  five reference = -
     action:recipient : ontology label = ""  |  five reference = -
     action:state : ontology label = 0  |  five reference = -
     action:type : ontology label = ""  |  five reference = - 
     } 

  Event 38 (bm) : 
     { 
     action:verb : ontology label = "positioning_an_object_in_some_place_with_both_hands"  |  five reference = "UFR_Relation_TwoHandsRelease"
     action:destination : ontology label = "table_left_corner"  |  five reference = "UFO_Location_TrayTable_2"
     action:affected-1 : ontology label = "tray"  |  five reference = "UFO_Tray"
     action:actuator : ontology label = "Other_both-hands"  |  five reference = -
     action:affected : ontology label = "#tray"  |  five reference = -
     action:affected-number : ontology label = "1"  |  five reference = -
     action:description : ontology label = ""  |  five reference = -
     action:id : ontology label = 43  |  five reference = -
     action:instrument : ontology label = ""  |  five reference = -
     action:instrument-number : ontology label = "0"  |  five reference = -
     action:origin : ontology label = ""  |  five reference = -
     action:recipient : ontology label = ""  |  five reference = -
     action:state : ontology label = 0  |  five reference = -
     action:type : ontology label = ""  |  five reference = - 
     } 


