=============================================================================
=                     FLIPFLOP EXECUTION REPORTING                          =
=                TF Net Synthesis & #7 Code Generating                      =
=============================================================================

--------------------------------------------------------------
   Configuration
--------------------------------------------------------------

 XES file: _xes/xes_rennes_1-18_phase4.xes
 Classifier: AVAT Classifier
 PDF file: -
 Graph file: -
 #7 file: _seven/seven_rennes_1-12_16tests_phase4.xml
 Optimization requested : NO 


--------------------------------------------------------------
   Initialisation of synthesis
--------------------------------------------------------------

 Process ending : Initialisation of synthesis
 Process time = 0.000002


--------------------------------------------------------------
   Main Synthesis
--------------------------------------------------------------

 Process ending : Main Synthesis
 Process time = 0.005737


--------------------------------------------------------------
   #7 Code Generating
--------------------------------------------------------------

 Process ending : #7 Code Generating
 Process time = 0.008292


--------------------------------------------------------------
   #7 Code Analysis
--------------------------------------------------------------

 Lenght max of path : 18
 Number of simple paths : 85
 Origin paths : 12
 New paths : 73
 Number of inclused traces / tested traces : 0 / 6
 Process ending : #7 Code Analysis
 Process time = 0.001452

