=============================================================================
=                     FLIPFLOP EXECUTION REPORTING                          =
=                TF Net Synthesis & #7 Code Generating                      =
=============================================================================

--------------------------------------------------------------
   Configuration
--------------------------------------------------------------

 XES file: _xes/xes_rennes_1-8_phase4.xes
 Classifier: AVAT Classifier
 PDF file: _pdf/xes_rennes_1-8_phase4.pdf
 Graph file: -
 #7 file: -
 Optimization requested : NO 


--------------------------------------------------------------
   Initialisation of synthesis
--------------------------------------------------------------

 Process ending : Initialisation of synthesis
 Process time = 0.000001


--------------------------------------------------------------
   Main Synthesis
--------------------------------------------------------------

 Process ending : Main Synthesis
 Process time = 0.003119


--------------------------------------------------------------
   Elimination of redundent regions
--------------------------------------------------------------

 Process ending : Elimination of redundent regions
 Process time = 0.434674


--------------------------------------------------------------
   Merge of admissible regions with identical supports
--------------------------------------------------------------

 Process ending : Merge of admissible regions with identical supports
 Process time = 0.001904


--------------------------------------------------------------
   Display the T/F Net (and generate a pdf file)
--------------------------------------------------------------

 Process ending : Display the T/F Net (and generate a pdf file)
 Process time = 0.001230

