=============================================================================
=                     FLIPFLOP EXECUTION REPORTING                          =
=                TF Net Synthesis & #7 Code Generating                      =
=============================================================================

--------------------------------------------------------------
   Configuration
--------------------------------------------------------------

 XES file: _xes/xes_rennes_1-18_phase4.xes
 Classifier: AVAT Classifier
 PDF file: -
 Graph file: -
 #7 file: _seven/seven_rennes_1-2_16tests_phase4.xml
 Optimization requested : NO 


--------------------------------------------------------------
   Initialisation of synthesis
--------------------------------------------------------------

 Process ending : Initialisation of synthesis
 Process time = 0.000002


--------------------------------------------------------------
   Main Synthesis
--------------------------------------------------------------

 Process ending : Main Synthesis
 Process time = 0.000151


--------------------------------------------------------------
   #7 Code Generating
--------------------------------------------------------------

 Process ending : #7 Code Generating
 Process time = 0.000910


--------------------------------------------------------------
   #7 Code Analysis
--------------------------------------------------------------

 Lenght max of path : 13
 Number of simple paths : 4
 Origin paths : 2
 New paths : 2
 Number of inclused traces / tested traces : 0 / 16
 Process ending : #7 Code Analysis
 Process time = 0.000049

