
digraph seven {
node [shape=circle]

1122 -> 1118 [label="i"];
1122 -> 1120 [label="c"];
1118 -> 1122 [label="i"];
1118 -> 1105 [label="c"];
821 -> 288 [label="b"];
817 -> 809 [label="i"];
817 -> 582 [label="c"];
817 -> 584 [label="b"];
813 -> 805 [label="i"];
813 -> 577 [label="c"];
813 -> 579 [label="b"];
809 -> 817 [label="i"];
809 -> 572 [label="c"];
809 -> 574 [label="b"];
809 -> 222 [label="a"];
805 -> 813 [label="i"];
805 -> 566 [label="c"];
805 -> 217 [label="b"];
802 -> 561 [label="c"];
802 -> 563 [label="b"];
797 -> 206 [label="b"];
1244 -> 652 [label="e"];
1133 -> 1244 [label="k"];
792 -> 760 [label="z"];
792 -> 554 [label="c"];
792 -> 556 [label="b"];
789 -> 550 [label="c"];
789 -> 552 [label="b"];
785 -> 789 [label="bo"];
785 -> 545 [label="c"];
785 -> 547 [label="b"];
782 -> 780 [label="b"];
778 -> 782 [label="bm"];
778 -> 757 [label="z"];
778 -> 540 [label="c"];
778 -> 542 [label="b"];
775 -> 536 [label="c"];
775 -> 538 [label="b"];
772 -> 529 [label="c"];
772 -> 531 [label="b"];
769 -> 764 [label="bm"];
769 -> 775 [label="be"];
769 -> 524 [label="c"];
769 -> 526 [label="b"];
764 -> 762 [label="b"];
760 -> 757 [label="bg"];
760 -> 792 [label="z"];
760 -> 516 [label="c"];
760 -> 518 [label="b"];
757 -> 760 [label="bg"];
757 -> 778 [label="z"];
757 -> 508 [label="c"];
757 -> 510 [label="b"];
753 -> 503 [label="c"];
753 -> 505 [label="b"];
748 -> 497 [label="c"];
748 -> 499 [label="b"];
745 -> 491 [label="c"];
745 -> 493 [label="b"];
741 -> 487 [label="c"];
741 -> 489 [label="b"];
738 -> 482 [label="c"];
738 -> 484 [label="b"];
734 -> 475 [label="c"];
734 -> 477 [label="b"];
730 -> 470 [label="c"];
730 -> 472 [label="b"];
697 -> 620 [label="i"];
697 -> 461 [label="c"];
697 -> 463 [label="b"];
693 -> 456 [label="c"];
693 -> 458 [label="b"];
688 -> 451 [label="c"];
688 -> 453 [label="b"];
684 -> 679 [label="bg"];
684 -> 445 [label="c"];
684 -> 447 [label="b"];
679 -> 684 [label="bg"];
679 -> 599 [label="i"];
679 -> 438 [label="c"];
679 -> 440 [label="b"];
674 -> 434 [label="c"];
674 -> 436 [label="b"];
669 -> 429 [label="c"];
669 -> 431 [label="b"];
665 -> 424 [label="c"];
665 -> 426 [label="b"];
661 -> 419 [label="c"];
661 -> 421 [label="b"];
655 -> 414 [label="c"];
655 -> 416 [label="b"];
652 -> 596 [label="k"];
652 -> 409 [label="c"];
652 -> 411 [label="b"];
648 -> 615 [label="z"];
648 -> 403 [label="c"];
648 -> 405 [label="b"];
645 -> 612 [label="z"];
645 -> 396 [label="c"];
645 -> 398 [label="b"];
641 -> 609 [label="z"];
641 -> 391 [label="c"];
641 -> 393 [label="b"];
638 -> 635 [label="bg"];
638 -> 596 [label="z"];
638 -> 385 [label="c"];
638 -> 387 [label="b"];
635 -> 638 [label="bg"];
635 -> 590 [label="z"];
635 -> 379 [label="c"];
635 -> 381 [label="b"];
620 -> 697 [label="i"];
620 -> 358 [label="c"];
620 -> 360 [label="b"];
615 -> 648 [label="z"];
615 -> 351 [label="c"];
615 -> 353 [label="b"];
612 -> 645 [label="z"];
612 -> 344 [label="c"];
612 -> 346 [label="b"];
609 -> 641 [label="z"];
609 -> 337 [label="c"];
609 -> 339 [label="b"];
606 -> 612 [label="bi"];
606 -> 331 [label="c"];
606 -> 333 [label="b"];
603 -> 326 [label="c"];
603 -> 328 [label="b"];
599 -> 679 [label="i"];
599 -> 317 [label="c"];
599 -> 319 [label="b"];
596 -> 638 [label="z"];
596 -> 1133 [label="e"];
596 -> 310 [label="c"];
596 -> 312 [label="b"];
593 -> 305 [label="c"];
593 -> 307 [label="b"];
590 -> 635 [label="z"];
590 -> 298 [label="c"];
590 -> 300 [label="b"];
1120 -> 577 [label="j"];
1120 -> 1105 [label="i"];
1120 -> 1122 [label="c"];
1105 -> 1120 [label="i"];
1105 -> 1118 [label="c"];
582 -> 572 [label="i"];
582 -> 817 [label="c"];
582 -> 189 [label="b"];
577 -> 566 [label="i"];
577 -> 813 [label="c"];
577 -> 569 [label="b"];
577 -> 186 [label="a"];
572 -> 582 [label="i"];
572 -> 245 [label="d"];
572 -> 809 [label="c"];
572 -> 570 [label="b"];
566 -> 1105 [label="j"];
566 -> 577 [label="i"];
566 -> 805 [label="c"];
566 -> 564 [label="b"];
561 -> 802 [label="c"];
561 -> 559 [label="b"];
1077 -> 561 [label="g"];
554 -> 792 [label="c"];
554 -> 520 [label="b"];
550 -> 536 [label="bh"];
550 -> 789 [label="c"];
550 -> 548 [label="b"];
545 -> 785 [label="c"];
545 -> 533 [label="b"];
540 -> 778 [label="c"];
540 -> 512 [label="b"];
536 -> 524 [label="be"];
536 -> 775 [label="c"];
536 -> 534 [label="b"];
529 -> 772 [label="c"];
529 -> 527 [label="b"];
524 -> 769 [label="c"];
524 -> 522 [label="b"];
516 -> 760 [label="c"];
516 -> 514 [label="b"];
508 -> 757 [label="c"];
508 -> 506 [label="b"];
982 -> 1077 [label="f"];
503 -> 753 [label="c"];
503 -> 501 [label="b"];
497 -> 445 [label="z"];
497 -> 748 [label="c"];
497 -> 495 [label="b"];
491 -> 745 [label="c"];
491 -> 479 [label="b"];
487 -> 438 [label="z"];
487 -> 741 [label="c"];
487 -> 485 [label="b"];
482 -> 738 [label="c"];
482 -> 480 [label="b"];
475 -> 434 [label="z"];
475 -> 734 [label="c"];
475 -> 473 [label="b"];
470 -> 429 [label="z"];
470 -> 730 [label="c"];
470 -> 468 [label="b"];
461 -> 424 [label="z"];
461 -> 358 [label="i"];
461 -> 697 [label="c"];
461 -> 362 [label="b"];
456 -> 419 [label="z"];
456 -> 693 [label="c"];
456 -> 454 [label="b"];
451 -> 414 [label="z"];
451 -> 688 [label="c"];
451 -> 449 [label="b"];
445 -> 497 [label="z"];
445 -> 684 [label="c"];
445 -> 443 [label="b"];
438 -> 487 [label="z"];
438 -> 317 [label="i"];
438 -> 679 [label="c"];
438 -> 321 [label="b"];
434 -> 429 [label="bg"];
434 -> 475 [label="z"];
434 -> 674 [label="c"];
434 -> 432 [label="b"];
429 -> 434 [label="bg"];
429 -> 470 [label="z"];
429 -> 669 [label="c"];
429 -> 427 [label="b"];
424 -> 461 [label="z"];
424 -> 665 [label="c"];
424 -> 422 [label="b"];
419 -> 429 [label="bf"];
419 -> 456 [label="z"];
419 -> 661 [label="c"];
419 -> 417 [label="b"];
414 -> 451 [label="z"];
414 -> 655 [label="c"];
414 -> 412 [label="b"];
409 -> 652 [label="c"];
409 -> 407 [label="b"];
403 -> 391 [label="bg"];
403 -> 648 [label="c"];
403 -> 355 [label="b"];
396 -> 645 [label="c"];
396 -> 348 [label="b"];
391 -> 403 [label="bg"];
391 -> 641 [label="c"];
391 -> 341 [label="b"];
385 -> 638 [label="c"];
385 -> 314 [label="b"];
379 -> 635 [label="c"];
379 -> 302 [label="b"];
358 -> 461 [label="i"];
358 -> 620 [label="c"];
358 -> 356 [label="b"];
351 -> 615 [label="c"];
351 -> 349 [label="b"];
344 -> 612 [label="c"];
344 -> 342 [label="b"];
337 -> 305 [label="bh"];
337 -> 609 [label="c"];
337 -> 335 [label="b"];
331 -> 606 [label="c"];
331 -> 329 [label="b"];
326 -> 331 [label="bl"];
326 -> 603 [label="c"];
326 -> 324 [label="b"];
317 -> 438 [label="i"];
317 -> 599 [label="c"];
317 -> 315 [label="b"];
310 -> 596 [label="c"];
310 -> 308 [label="b"];
305 -> 298 [label="bi"];
305 -> 593 [label="c"];
305 -> 303 [label="b"];
298 -> 326 [label="bh"];
298 -> 590 [label="c"];
298 -> 296 [label="b"];
294 -> 982 [label="e"];
294 -> 231 [label="b"];
292 -> 290 [label="b"];
292 -> 153 [label="a"];
976 -> 292 [label="n"];
285 -> 976 [label="m"];
285 -> 281 [label="i"];
285 -> 255 [label="c"];
285 -> 257 [label="b"];
281 -> 285 [label="i"];
281 -> 249 [label="c"];
281 -> 251 [label="b"];
276 -> 263 [label="i"];
276 -> 239 [label="c"];
276 -> 241 [label="b"];
276 -> 143 [label="a"];
274 -> 271 [label="b"];
268 -> 266 [label="b"];
263 -> 276 [label="i"];
263 -> 233 [label="c"];
263 -> 235 [label="b"];
260 -> 227 [label="c"];
260 -> 229 [label="b"];
255 -> 249 [label="i"];
255 -> 285 [label="c"];
255 -> 253 [label="b"];
249 -> 255 [label="i"];
249 -> 281 [label="c"];
249 -> 247 [label="b"];
245 -> 572 [label="d"];
245 -> 243 [label="b"];
239 -> 233 [label="i"];
239 -> 276 [label="c"];
239 -> 237 [label="b"];
233 -> 239 [label="i"];
233 -> 263 [label="c"];
233 -> 38 [label="b"];
227 -> 260 [label="c"];
227 -> 3 [label="b"];
225 -> 153 [label="d"];
225 -> 223 [label="b"];
222 -> 220 [label="b"];
219 -> 215 [label="b"];
214 -> 219 [label="h"];
214 -> 212 [label="b"];
210 -> 178 [label="c"];
210 -> 180 [label="b"];
208 -> 204 [label="b"];
200 -> 208 [label="bc"];
200 -> 193 [label="i"];
200 -> 172 [label="c"];
200 -> 174 [label="b"];
197 -> 168 [label="c"];
197 -> 170 [label="b"];
193 -> 200 [label="i"];
193 -> 161 [label="c"];
193 -> 163 [label="b"];
191 -> 187 [label="b"];
186 -> 191 [label="k"];
186 -> 184 [label="b"];
182 -> 168 [label="l"];
182 -> 68 [label="b"];
178 -> 172 [label="bb"];
178 -> 210 [label="c"];
178 -> 176 [label="b"];
172 -> 168 [label="ba"];
172 -> 161 [label="i"];
172 -> 200 [label="c"];
172 -> 165 [label="b"];
168 -> 172 [label="ba"];
168 -> 197 [label="c"];
168 -> 166 [label="b"];
161 -> 172 [label="i"];
161 -> 193 [label="c"];
161 -> 159 [label="b"];
156 -> 145 [label="i"];
156 -> 106 [label="c"];
156 -> 108 [label="b"];
153 -> 225 [label="d"];
153 -> 102 [label="c"];
153 -> 104 [label="b"];
150 -> 97 [label="c"];
150 -> 99 [label="b"];
145 -> 156 [label="i"];
145 -> 90 [label="c"];
145 -> 92 [label="b"];
143 -> 141 [label="b"];
137 -> 130 [label="z"];
137 -> 77 [label="c"];
137 -> 79 [label="b"];
133 -> 130 [label="ba"];
133 -> 115 [label="i"];
133 -> 72 [label="c"];
133 -> 74 [label="b"];
130 -> 133 [label="ba"];
130 -> 137 [label="z"];
130 -> 64 [label="c"];
130 -> 66 [label="b"];
126 -> 130 [label="y"];
126 -> 57 [label="c"];
126 -> 59 [label="b"];
123 -> 51 [label="c"];
123 -> 53 [label="b"];
119 -> 111 [label="i"];
119 -> 45 [label="c"];
119 -> 47 [label="b"];
115 -> 133 [label="i"];
115 -> 31 [label="c"];
115 -> 33 [label="b"];
111 -> 119 [label="i"];
111 -> 24 [label="c"];
111 -> 26 [label="b"];
106 -> 90 [label="i"];
106 -> 156 [label="c"];
106 -> 94 [label="b"];
102 -> 106 [label="o"];
102 -> 153 [label="c"];
102 -> 100 [label="b"];
861 -> 851 [label="k"];
97 -> 861 [label="q"];
97 -> 150 [label="c"];
97 -> 95 [label="b"];
90 -> 106 [label="i"];
90 -> 145 [label="c"];
90 -> 88 [label="b"];
853 -> 87 [label="e"];
851 -> 853 [label="r"];
87 -> 8 [label="f"];
87 -> 85 [label="b"];
77 -> 137 [label="c"];
77 -> 70 [label="b"];
72 -> 31 [label="i"];
72 -> 133 [label="c"];
72 -> 35 [label="b"];
64 -> 130 [label="c"];
64 -> 62 [label="b"];
57 -> 126 [label="c"];
57 -> 55 [label="b"];
51 -> 123 [label="c"];
51 -> 49 [label="b"];
45 -> 24 [label="i"];
45 -> 119 [label="c"];
45 -> 28 [label="b"];
40 -> 24 [label="t"];
40 -> 36 [label="b"];
31 -> 72 [label="i"];
31 -> 115 [label="c"];
31 -> 29 [label="b"];
24 -> 40 [label="t"];
24 -> 45 [label="i"];
24 -> 111 [label="c"];
24 -> 22 [label="b"];
13 -> 11 [label="b"];
8 -> 6 [label="b"];
5 -> 1 [label="b"];
288 -> 257 [label="d"];
288 -> 821 [label="b"];
584 -> 574 [label="i"];
584 -> 189 [label="c"];
584 -> 817 [label="b"];
579 -> 217 [label="i"];
579 -> 569 [label="c"];
579 -> 813 [label="b"];
574 -> 584 [label="i"];
574 -> 570 [label="c"];
574 -> 809 [label="b"];
217 -> 579 [label="i"];
217 -> 564 [label="c"];
217 -> 805 [label="b"];
563 -> 559 [label="c"];
563 -> 802 [label="b"];
563 -> 212 [label="a"];
795 -> 505 [label="e"];
206 -> 795 [label="bd"];
206 -> 797 [label="b"];
658 -> 795 [label="k"];
556 -> 520 [label="c"];
556 -> 792 [label="b"];
552 -> 548 [label="c"];
552 -> 789 [label="b"];
547 -> 531 [label="be"];
547 -> 533 [label="c"];
547 -> 785 [label="b"];
780 -> 547 [label="bn"];
780 -> 782 [label="b"];
542 -> 512 [label="c"];
542 -> 778 [label="b"];
538 -> 534 [label="c"];
538 -> 775 [label="b"];
531 -> 527 [label="c"];
531 -> 772 [label="b"];
526 -> 522 [label="c"];
526 -> 769 [label="b"];
766 -> 586 [label="e"];
762 -> 766 [label="bp"];
762 -> 764 [label="b"];
518 -> 514 [label="c"];
518 -> 760 [label="b"];
510 -> 506 [label="c"];
510 -> 757 [label="b"];
505 -> 416 [label="k"];
505 -> 501 [label="c"];
505 -> 753 [label="b"];
708 -> 706 [label="t"];
499 -> 447 [label="z"];
499 -> 495 [label="c"];
499 -> 748 [label="b"];
493 -> 479 [label="c"];
493 -> 745 [label="b"];
489 -> 440 [label="z"];
489 -> 485 [label="c"];
489 -> 741 [label="b"];
484 -> 480 [label="c"];
484 -> 738 [label="b"];
477 -> 436 [label="z"];
477 -> 473 [label="c"];
477 -> 734 [label="b"];
472 -> 431 [label="z"];
472 -> 468 [label="c"];
472 -> 730 [label="b"];
631 -> 629 [label="i"];
726 -> 717 [label="bv"];
724 -> 726 [label="bz"];
722 -> 724 [label="by"];
720 -> 722 [label="bx"];
710 -> 720 [label="bw"];
717 -> 715 [label="bw"];
715 -> 713 [label="bx"];
713 -> 466 [label="by"];
466 -> 365 [label="i"];
466 -> 367 [label="c"];
706 -> 710 [label="bv"];
706 -> 708 [label="t"];
704 -> 706 [label="bu"];
626 -> 704 [label="bt"];
626 -> 624 [label="i"];
463 -> 631 [label="br"];
463 -> 426 [label="z"];
463 -> 360 [label="i"];
463 -> 362 [label="c"];
463 -> 697 [label="b"];
458 -> 421 [label="z"];
458 -> 454 [label="c"];
458 -> 693 [label="b"];
453 -> 458 [label="be"];
453 -> 416 [label="z"];
453 -> 449 [label="c"];
453 -> 688 [label="b"];
447 -> 499 [label="z"];
447 -> 443 [label="c"];
447 -> 684 [label="b"];
440 -> 489 [label="z"];
440 -> 319 [label="i"];
440 -> 321 [label="c"];
440 -> 679 [label="b"];
436 -> 431 [label="bg"];
436 -> 477 [label="z"];
436 -> 432 [label="c"];
436 -> 674 [label="b"];
431 -> 436 [label="bg"];
431 -> 472 [label="z"];
431 -> 427 [label="c"];
431 -> 669 [label="b"];
426 -> 463 [label="z"];
426 -> 422 [label="c"];
426 -> 665 [label="b"];
421 -> 458 [label="z"];
421 -> 417 [label="c"];
421 -> 661 [label="b"];
416 -> 453 [label="z"];
416 -> 658 [label="e"];
416 -> 412 [label="c"];
416 -> 655 [label="b"];
411 -> 407 [label="c"];
411 -> 652 [label="b"];
405 -> 393 [label="bg"];
405 -> 355 [label="c"];
405 -> 648 [label="b"];
398 -> 348 [label="c"];
398 -> 645 [label="b"];
393 -> 405 [label="bg"];
393 -> 341 [label="c"];
393 -> 641 [label="b"];
387 -> 314 [label="c"];
387 -> 638 [label="b"];
381 -> 302 [label="c"];
381 -> 635 [label="b"];
588 -> 617 [label="bo"];
629 -> 360 [label="br"];
629 -> 631 [label="i"];
365 -> 466 [label="i"];
365 -> 363 [label="c"];
624 -> 626 [label="i"];
360 -> 624 [label="bs"];
360 -> 463 [label="i"];
360 -> 356 [label="c"];
360 -> 620 [label="b"];
617 -> 360 [label="bq"];
353 -> 349 [label="c"];
353 -> 615 [label="b"];
346 -> 342 [label="c"];
346 -> 612 [label="b"];
339 -> 335 [label="c"];
339 -> 609 [label="b"];
333 -> 329 [label="c"];
333 -> 606 [label="b"];
328 -> 324 [label="c"];
328 -> 603 [label="b"];
319 -> 440 [label="i"];
319 -> 315 [label="c"];
319 -> 599 [label="b"];
312 -> 308 [label="c"];
312 -> 596 [label="b"];
307 -> 303 [label="c"];
307 -> 593 [label="b"];
300 -> 296 [label="c"];
300 -> 590 [label="b"];
586 -> 588 [label="g"];
189 -> 570 [label="i"];
189 -> 584 [label="c"];
189 -> 582 [label="b"];
569 -> 564 [label="i"];
569 -> 579 [label="c"];
569 -> 577 [label="b"];
570 -> 189 [label="i"];
570 -> 574 [label="c"];
570 -> 572 [label="b"];
564 -> 569 [label="i"];
564 -> 217 [label="c"];
564 -> 566 [label="b"];
559 -> 563 [label="c"];
559 -> 561 [label="b"];
400 -> 512 [label="g"];
520 -> 514 [label="z"];
520 -> 556 [label="c"];
520 -> 554 [label="b"];
548 -> 552 [label="c"];
548 -> 550 [label="b"];
533 -> 547 [label="c"];
533 -> 545 [label="b"];
512 -> 506 [label="z"];
512 -> 542 [label="c"];
512 -> 540 [label="b"];
534 -> 538 [label="c"];
534 -> 536 [label="b"];
527 -> 533 [label="be"];
527 -> 531 [label="c"];
527 -> 529 [label="b"];
522 -> 526 [label="c"];
522 -> 524 [label="b"];
514 -> 506 [label="bg"];
514 -> 520 [label="z"];
514 -> 518 [label="c"];
514 -> 516 [label="b"];
506 -> 514 [label="bg"];
506 -> 512 [label="z"];
506 -> 510 [label="c"];
506 -> 508 [label="b"];
501 -> 505 [label="c"];
501 -> 503 [label="b"];
495 -> 480 [label="bh"];
495 -> 499 [label="c"];
495 -> 497 [label="b"];
479 -> 495 [label="bi"];
479 -> 493 [label="c"];
479 -> 491 [label="b"];
485 -> 489 [label="c"];
485 -> 487 [label="b"];
480 -> 484 [label="c"];
480 -> 482 [label="b"];
473 -> 479 [label="bh"];
473 -> 477 [label="c"];
473 -> 475 [label="b"];
468 -> 472 [label="c"];
468 -> 470 [label="b"];
367 -> 363 [label="i"];
367 -> 466 [label="c"];
362 -> 356 [label="i"];
362 -> 463 [label="c"];
362 -> 461 [label="b"];
454 -> 449 [label="be"];
454 -> 458 [label="c"];
454 -> 456 [label="b"];
449 -> 453 [label="c"];
449 -> 451 [label="b"];
443 -> 321 [label="bg"];
443 -> 447 [label="c"];
443 -> 445 [label="b"];
321 -> 443 [label="bg"];
321 -> 315 [label="i"];
321 -> 440 [label="c"];
321 -> 438 [label="b"];
432 -> 436 [label="c"];
432 -> 434 [label="b"];
427 -> 431 [label="c"];
427 -> 429 [label="b"];
422 -> 426 [label="c"];
422 -> 424 [label="b"];
417 -> 421 [label="c"];
417 -> 419 [label="b"];
412 -> 416 [label="c"];
412 -> 414 [label="b"];
407 -> 411 [label="c"];
407 -> 409 [label="b"];
355 -> 349 [label="z"];
355 -> 405 [label="c"];
355 -> 403 [label="b"];
348 -> 342 [label="z"];
348 -> 400 [label="e"];
348 -> 398 [label="c"];
348 -> 396 [label="b"];
341 -> 335 [label="z"];
341 -> 393 [label="c"];
341 -> 391 [label="b"];
314 -> 302 [label="bg"];
314 -> 308 [label="z"];
314 -> 387 [label="c"];
314 -> 385 [label="b"];
302 -> 314 [label="bg"];
302 -> 296 [label="z"];
302 -> 381 [label="c"];
302 -> 379 [label="b"];
375 -> 377 [label="ce"];
373 -> 375 [label="cd"];
371 -> 373 [label="cc"];
369 -> 371 [label="cb"];
363 -> 369 [label="ca"];
363 -> 367 [label="i"];
363 -> 365 [label="c"];
356 -> 362 [label="i"];
356 -> 360 [label="c"];
356 -> 358 [label="b"];
349 -> 355 [label="z"];
349 -> 353 [label="c"];
349 -> 351 [label="b"];
342 -> 348 [label="z"];
342 -> 346 [label="c"];
342 -> 344 [label="b"];
335 -> 341 [label="z"];
335 -> 339 [label="c"];
335 -> 337 [label="b"];
323 -> 335 [label="bk"];
329 -> 333 [label="c"];
329 -> 331 [label="b"];
324 -> 328 [label="c"];
324 -> 326 [label="b"];
315 -> 323 [label="bj"];
315 -> 321 [label="i"];
315 -> 319 [label="c"];
315 -> 317 [label="b"];
308 -> 314 [label="z"];
308 -> 312 [label="c"];
308 -> 310 [label="b"];
303 -> 307 [label="c"];
303 -> 305 [label="b"];
296 -> 302 [label="z"];
296 -> 300 [label="c"];
296 -> 298 [label="b"];
231 -> 3 [label="d"];
231 -> 294 [label="b"];
290 -> 292 [label="b"];
257 -> 251 [label="i"];
257 -> 288 [label="d"];
257 -> 253 [label="c"];
257 -> 285 [label="b"];
251 -> 257 [label="i"];
251 -> 247 [label="c"];
251 -> 281 [label="b"];
241 -> 266 [label="t"];
241 -> 235 [label="i"];
241 -> 237 [label="c"];
241 -> 276 [label="b"];
271 -> 274 [label="b"];
271 -> 53 [label="a"];
266 -> 271 [label="u"];
266 -> 241 [label="t"];
266 -> 268 [label="b"];
235 -> 241 [label="i"];
235 -> 38 [label="c"];
235 -> 263 [label="b"];
229 -> 3 [label="c"];
229 -> 260 [label="b"];
253 -> 247 [label="i"];
253 -> 257 [label="c"];
253 -> 255 [label="b"];
247 -> 253 [label="i"];
247 -> 251 [label="c"];
247 -> 249 [label="b"];
243 -> 247 [label="l"];
243 -> 245 [label="b"];
237 -> 38 [label="i"];
237 -> 241 [label="c"];
237 -> 239 [label="b"];
38 -> 237 [label="i"];
38 -> 235 [label="c"];
38 -> 233 [label="b"];
3 -> 231 [label="d"];
3 -> 229 [label="c"];
3 -> 227 [label="b"];
223 -> 225 [label="b"];
220 -> 222 [label="b"];
215 -> 219 [label="b"];
215 -> 217 [label="a"];
212 -> 214 [label="b"];
180 -> 176 [label="c"];
180 -> 210 [label="b"];
204 -> 208 [label="b"];
204 -> 206 [label="a"];
174 -> 180 [label="bb"];
174 -> 163 [label="i"];
174 -> 165 [label="c"];
174 -> 200 [label="b"];
170 -> 166 [label="c"];
170 -> 197 [label="b"];
163 -> 174 [label="i"];
163 -> 159 [label="c"];
163 -> 193 [label="b"];
187 -> 191 [label="b"];
187 -> 189 [label="a"];
184 -> 186 [label="b"];
68 -> 62 [label="d"];
68 -> 182 [label="b"];
176 -> 180 [label="c"];
176 -> 178 [label="b"];
165 -> 159 [label="i"];
165 -> 174 [label="c"];
165 -> 172 [label="b"];
166 -> 170 [label="c"];
166 -> 168 [label="b"];
159 -> 165 [label="i"];
159 -> 163 [label="c"];
159 -> 161 [label="b"];
108 -> 92 [label="i"];
108 -> 94 [label="c"];
108 -> 156 [label="b"];
104 -> 100 [label="c"];
104 -> 153 [label="b"];
99 -> 95 [label="c"];
99 -> 150 [label="b"];
92 -> 99 [label="p"];
92 -> 108 [label="i"];
92 -> 88 [label="c"];
92 -> 145 [label="b"];
141 -> 143 [label="b"];
83 -> 59 [label="w"];
83 -> 81 [label="c"];
79 -> 70 [label="c"];
79 -> 137 [label="b"];
74 -> 33 [label="i"];
74 -> 35 [label="c"];
74 -> 133 [label="b"];
66 -> 62 [label="c"];
66 -> 130 [label="b"];
59 -> 83 [label="w"];
59 -> 55 [label="c"];
59 -> 126 [label="b"];
53 -> 49 [label="c"];
53 -> 123 [label="b"];
47 -> 26 [label="i"];
47 -> 28 [label="c"];
47 -> 119 [label="b"];
33 -> 74 [label="i"];
33 -> 29 [label="c"];
33 -> 115 [label="b"];
26 -> 47 [label="i"];
26 -> 22 [label="c"];
26 -> 111 [label="b"];
94 -> 88 [label="i"];
94 -> 108 [label="c"];
94 -> 106 [label="b"];
100 -> 104 [label="c"];
100 -> 102 [label="b"];
95 -> 99 [label="c"];
95 -> 97 [label="b"];
88 -> 94 [label="i"];
88 -> 92 [label="c"];
88 -> 90 [label="b"];
85 -> 87 [label="b"];
61 -> 55 [label="x"];
81 -> 83 [label="c"];
70 -> 62 [label="z"];
70 -> 79 [label="c"];
70 -> 77 [label="b"];
35 -> 29 [label="i"];
35 -> 74 [label="c"];
35 -> 72 [label="b"];
62 -> 70 [label="z"];
62 -> 68 [label="d"];
62 -> 66 [label="c"];
62 -> 64 [label="b"];
55 -> 61 [label="x"];
55 -> 59 [label="c"];
55 -> 57 [label="b"];
49 -> 55 [label="v"];
49 -> 53 [label="c"];
49 -> 51 [label="b"];
28 -> 22 [label="i"];
28 -> 47 [label="c"];
28 -> 45 [label="b"];
21 -> 28 [label="s"];
21 -> 18 [label="i"];
16 -> 10 [label="i"];
36 -> 40 [label="b"];
36 -> 38 [label="a"];
29 -> 35 [label="i"];
29 -> 33 [label="c"];
29 -> 31 [label="b"];
22 -> 28 [label="i"];
22 -> 26 [label="c"];
22 -> 24 [label="b"];
18 -> 21 [label="i"];
18 -> 11 [label="e"];
10 -> 18 [label="k"];
10 -> 16 [label="i"];
11 -> 6 [label="k"];
11 -> 13 [label="b"];
6 -> 10 [label="e"];
6 -> 8 [label="b"];
1 -> 5 [label="b"];
1 -> 3 [label="a"];

}
    