//////////////////////////////////////////////////////////// 
// ONTOLOGY BASIS 
//////////////////////////////////////////////////////////// 

 (  ; UFO_DollBottom3 ) 
 (  ; UFO_DollBottom5 ) 
 (  ; UFO_DollBottom7 ) 
 (  ; UFO_PaperCard ) 
 (  ; UFO_PaperPiece ) 
 (  ; UFO_Scissors ) 
 (  ; UFO_Location_Table ) 
 (  ;  ) 
 (  ;  ) 
 (  ;  ) 
 (  ; UFO_Doll0 ) 
 (  ; UFO_SugarBowl ) 
 (  ; UFO_SugarCube ) 
 (  ; UFO_SugarTong ) 
 (  ; UFO_TeaCup ) 
 (  ; UFO_DollTop3 ) 
 (  ; UFO_DollTop5 ) 
 (  ; UFO_DollTop7 ) 
 (  ; UFO_Towel ) 
 (  ; UFO_Tray ) 
 (  ; UFO_TrayHandle ) 

