=============================================================================
=                     FLIPFLOP EXECUTION REPORTING                          =
=                TF Net Synthesis & #7 Code Generating                      =
=============================================================================

--------------------------------------------------------------
   Configuration
--------------------------------------------------------------

 XES file: _xes/cataract1_phase_7.xes
 Classifier: MXML Legacy Classifier
 PDF file: -
 Graph file: -
 #7 file: _seven/seven_quotient_cataract1_phase_7.xml
 Optimization requested : YES (0, 0) 


--------------------------------------------------------------
   Initialisation of synthesis
--------------------------------------------------------------

 Process ending : Initialisation of synthesis
 Process time = 0.000002


--------------------------------------------------------------
   Main Synthesis
--------------------------------------------------------------

 Process ending : Main Synthesis
 Process time = 0.000323


--------------------------------------------------------------
   #7 Code Generating
--------------------------------------------------------------

 Process ending : #7 Code Generating
 Process time = 0.001163


--------------------------------------------------------------
   #7 Code Analysis
--------------------------------------------------------------

 Lenght max of path : 10
 Number of simple paths : 19
 Origin paths : 19
 New paths : 0
 Number of inclused traces / tested traces : 0 / 0
 Process ending : #7 Code Analysis
 Process time = 0.000073

