[
  0 (a) : 
     { 
     concept:name : XES = "A"  |  VR = - 
     } 
  1 (b) : 
     { 
     concept:name : XES = "C"  |  VR = - 
     } 
  2 (c) : 
     { 
     concept:name : XES = "B"  |  VR = - 
     } 
  3 (d) : 
     { 
     concept:name : XES = "D"  |  VR = - 
     } 
]
