\relax 
\catcode `:\active 
\catcode `;\active 
\catcode `!\active 
\catcode `?\active 
\select@language{french}
\@writefile{toc}{\select@language{french}}
\@writefile{lof}{\select@language{french}}
\@writefile{lot}{\select@language{french}}
\@writefile{toc}{\contentsline {section}{\numberline {1}Pr\IeC {\'e}sentation}{1}}
\newlabel{section:presentation}{{1}{1}}
\@writefile{toc}{\contentsline {section}{\numberline {2}Installation}{1}}
\newlabel{section:installation}{{2}{1}}
\@writefile{toc}{\contentsline {subsection}{\numberline {2.1}Installation simple}{2}}
\newlabel{section:installSimple}{{2.1}{2}}
\@writefile{toc}{\contentsline {subsection}{\numberline {2.2}Installation optimale}{2}}
\newlabel{section:installOpt}{{2.2}{2}}
\@writefile{toc}{\contentsline {subsection}{\numberline {2.3}D\IeC {\'e}sinstallation}{2}}
\newlabel{section:desinstallation}{{2.3}{2}}
\@writefile{toc}{\contentsline {section}{\numberline {3}Commandes}{2}}
\newlabel{section:commandes}{{3}{2}}
\@writefile{toc}{\contentsline {subsection}{\numberline {3.1}Classifiers}{3}}
\newlabel{section:classifier}{{3.1}{3}}
\@writefile{toc}{\contentsline {subsection}{\numberline {3.2}Configuration}{4}}
\newlabel{section:configuration}{{3.2}{4}}
\@writefile{toc}{\contentsline {subsection}{\numberline {3.3}Synth\IeC {\`e}se}{6}}
\newlabel{section:synthese}{{3.3}{6}}
\@writefile{toc}{\contentsline {subsection}{\numberline {3.4}Op\IeC {\'e}rations compl\IeC {\'e}mentaires}{6}}
\newlabel{section:operationsComplementaires}{{3.4}{6}}
\@writefile{toc}{\contentsline {section}{\numberline {4}Exemples d'utilisation}{7}}
\newlabel{section:exemples}{{4}{7}}
\newlabel{section:exempleABCD}{{4}{7}}
\@writefile{lof}{\contentsline {figure}{\numberline {1}{\ignorespaces Graphe r\IeC {\'e}sultant de la synth\IeC {\`e}se pour l'exemple ABCD}}{10}}
\newlabel{fig:abcd_result}{{1}{10}}
