=============================================================================
=                     FLIPFLOP EXECUTION REPORTING                          =
=                TF Net Synthesis & #7 Code Generating                      =
=============================================================================

--------------------------------------------------------------
   Configuration
--------------------------------------------------------------

 XES file: _xes/xes_rcva_rennes_7_phase5b.xes
 Classifier: AVAT Classifier
 PDF file: _pdf/xes_rcva_rennes_7_phase5b.pdf
 Graph file: -
 #7 file: -
 Optimization requested : NO 


--------------------------------------------------------------
   Initialisation of synthesis
--------------------------------------------------------------

 Process ending : Initialisation of synthesis
 Process time = 0.000372


--------------------------------------------------------------
   Main Synthesis
--------------------------------------------------------------

 Process ending : Main Synthesis
 Process time = 0.000164


--------------------------------------------------------------
   Elimination of redundent regions
--------------------------------------------------------------

 Process ending : Elimination of redundent regions
 Process time = 0.001962


--------------------------------------------------------------
   Merge of admissible regions with identical supports
--------------------------------------------------------------

 Process ending : Merge of admissible regions with identical supports
 Process time = 0.000144


--------------------------------------------------------------
   Display the T/F Net (and generate a pdf file)
--------------------------------------------------------------

 Process ending : Display the T/F Net (and generate a pdf file)
 Process time = 0.000439

