=============================================================================
=                     FLIPFLOP EXECUTION REPORTING                          =
=                TF Net Synthesis & #7 Code Generating                      =
=============================================================================

--------------------------------------------------------------
   Configuration
--------------------------------------------------------------

 XES file: _xes/xes_rcva_rennes_1-2_phase3.xes
 Classifier: AVAT Classifier
 PDF file: -
 Graph file: -
 #7 file: _seven/seven_rcva_rennes_1-2_phase3.xml
 Optimization requested : NO 


--------------------------------------------------------------
   Initialisation of synthesis
--------------------------------------------------------------

 Process ending : Initialisation of synthesis
 Process time = 0.000926


--------------------------------------------------------------
   Main Synthesis
--------------------------------------------------------------

 Process ending : Main Synthesis
 Process time = 0.000360


--------------------------------------------------------------
   #7 Code Generating
--------------------------------------------------------------

 Process ending : #7 Code Generating
 Process time = 0.000925

