
digraph seven {
node [shape=circle]

26 -> 20 [label=""];
24 -> 20 [label=""];
18 -> 26 [label=""];
18 -> 24 [label=""];
16 -> 20 [label=""];
5 -> 18 [label=""];
14 -> 20 [label=""];
3 -> 18 [label=""];
11 -> 16 [label=""];
11 -> 14 [label=""];
9 -> 11 [label=""];
7 -> 11 [label=""];
1 -> 9 [label=""];
1 -> 7 [label=""];
1 -> 5 [label=""];
1 -> 3 [label=""];

}
    