
digraph seven {
node [shape=circle]

125 -> 225 [label="Dropping suture at end and moving to end points : grasper_left ; grasper_right"];
125 -> 97 [label="Pulling suture with both hands : grasper_left ; grasper_right"];
125 -> 111 [label="Reaching for suture with right hand : grasper_left ; grasper_right"];
125 -> 67 [label="Making a C Loop around the right hand : grasper_left ; grasper_right"];
125 -> 69 [label="Reaching for needle with left hand : grasper_left ; grasper_right"];
118 -> 219 [label="Dropping suture at end and moving to end points : grasper_left ; grasper_right"];
118 -> 90 [label="Pulling suture with both hands : grasper_left ; grasper_right"];
118 -> 104 [label="Reaching for suture with right hand : grasper_left ; grasper_right"];
118 -> 59 [label="Making a C Loop around the right hand : grasper_left ; grasper_right"];
118 -> 61 [label="Reaching for needle with left hand : grasper_left ; grasper_right"];
111 -> 213 [label="Dropping suture at end and moving to end points : grasper_left ; grasper_right"];
111 -> 83 [label="Pulling suture with both hands : grasper_left ; grasper_right"];
111 -> 125 [label="Reaching for suture with right hand : grasper_left ; grasper_right"];
111 -> 51 [label="Making a C Loop around the right hand : grasper_left ; grasper_right"];
111 -> 53 [label="Reaching for needle with left hand : grasper_left ; grasper_right"];
104 -> 207 [label="Dropping suture at end and moving to end points : grasper_left ; grasper_right"];
104 -> 76 [label="Pulling suture with both hands : grasper_left ; grasper_right"];
104 -> 118 [label="Reaching for suture with right hand : grasper_left ; grasper_right"];
104 -> 43 [label="Making a C Loop around the right hand : grasper_left ; grasper_right"];
104 -> 45 [label="Reaching for needle with left hand : grasper_left ; grasper_right"];
97 -> 201 [label="Dropping suture at end and moving to end points : grasper_left ; grasper_right"];
97 -> 125 [label="Pulling suture with both hands : grasper_left ; grasper_right"];
97 -> 83 [label="Reaching for suture with right hand : grasper_left ; grasper_right"];
97 -> 34 [label="Making a C Loop around the right hand : grasper_left ; grasper_right"];
97 -> 36 [label="Reaching for needle with left hand : grasper_left ; grasper_right"];
90 -> 195 [label="Dropping suture at end and moving to end points : grasper_left ; grasper_right"];
90 -> 118 [label="Pulling suture with both hands : grasper_left ; grasper_right"];
90 -> 76 [label="Reaching for suture with right hand : grasper_left ; grasper_right"];
90 -> 25 [label="Making a C Loop around the right hand : grasper_left ; grasper_right"];
90 -> 27 [label="Reaching for needle with left hand : grasper_left ; grasper_right"];
83 -> 189 [label="Dropping suture at end and moving to end points : grasper_left ; grasper_right"];
83 -> 111 [label="Pulling suture with both hands : grasper_left ; grasper_right"];
83 -> 97 [label="Reaching for suture with right hand : grasper_left ; grasper_right"];
83 -> 15 [label="Making a C Loop around the right hand : grasper_left ; grasper_right"];
83 -> 17 [label="Reaching for needle with left hand : grasper_left ; grasper_right"];
76 -> 183 [label="Dropping suture at end and moving to end points : grasper_left ; grasper_right"];
76 -> 104 [label="Pulling suture with both hands : grasper_left ; grasper_right"];
76 -> 90 [label="Reaching for suture with right hand : grasper_left ; grasper_right"];
76 -> 3 [label="Making a C Loop around the right hand : grasper_left ; grasper_right"];
76 -> 5 [label="Reaching for needle with left hand : grasper_left ; grasper_right"];
69 -> 177 [label="Dropping suture at end and moving to end points : grasper_left ; grasper_right"];
69 -> 36 [label="Pulling suture with both hands : grasper_left ; grasper_right"];
69 -> 53 [label="Reaching for suture with right hand : grasper_left ; grasper_right"];
69 -> 39 [label="Making a C Loop around the right hand : grasper_left ; grasper_right"];
69 -> 125 [label="Reaching for needle with left hand : grasper_left ; grasper_right"];
61 -> 171 [label="Dropping suture at end and moving to end points : grasper_left ; grasper_right"];
61 -> 27 [label="Pulling suture with both hands : grasper_left ; grasper_right"];
61 -> 45 [label="Reaching for suture with right hand : grasper_left ; grasper_right"];
61 -> 30 [label="Making a C Loop around the right hand : grasper_left ; grasper_right"];
61 -> 118 [label="Reaching for needle with left hand : grasper_left ; grasper_right"];
53 -> 165 [label="Dropping suture at end and moving to end points : grasper_left ; grasper_right"];
53 -> 17 [label="Pulling suture with both hands : grasper_left ; grasper_right"];
53 -> 69 [label="Reaching for suture with right hand : grasper_left ; grasper_right"];
53 -> 21 [label="Making a C Loop around the right hand : grasper_left ; grasper_right"];
53 -> 111 [label="Reaching for needle with left hand : grasper_left ; grasper_right"];
45 -> 159 [label="Dropping suture at end and moving to end points : grasper_left ; grasper_right"];
45 -> 5 [label="Pulling suture with both hands : grasper_left ; grasper_right"];
45 -> 61 [label="Reaching for suture with right hand : grasper_left ; grasper_right"];
45 -> 9 [label="Making a C Loop around the right hand : grasper_left ; grasper_right"];
45 -> 104 [label="Reaching for needle with left hand : grasper_left ; grasper_right"];
36 -> 153 [label="Dropping suture at end and moving to end points : grasper_left ; grasper_right"];
36 -> 69 [label="Pulling suture with both hands : grasper_left ; grasper_right"];
36 -> 17 [label="Reaching for suture with right hand : grasper_left ; grasper_right"];
36 -> 19 [label="Making a C Loop around the right hand : grasper_left ; grasper_right"];
36 -> 97 [label="Reaching for needle with left hand : grasper_left ; grasper_right"];
27 -> 147 [label="Dropping suture at end and moving to end points : grasper_left ; grasper_right"];
27 -> 61 [label="Pulling suture with both hands : grasper_left ; grasper_right"];
27 -> 5 [label="Reaching for suture with right hand : grasper_left ; grasper_right"];
27 -> 7 [label="Making a C Loop around the right hand : grasper_left ; grasper_right"];
27 -> 90 [label="Reaching for needle with left hand : grasper_left ; grasper_right"];
17 -> 141 [label="Dropping suture at end and moving to end points : grasper_left ; grasper_right"];
17 -> 53 [label="Pulling suture with both hands : grasper_left ; grasper_right"];
17 -> 36 [label="Reaching for suture with right hand : grasper_left ; grasper_right"];
17 -> 13 [label="Making a C Loop around the right hand : grasper_left ; grasper_right"];
17 -> 83 [label="Reaching for needle with left hand : grasper_left ; grasper_right"];
5 -> 135 [label="Dropping suture at end and moving to end points : grasper_left ; grasper_right"];
5 -> 45 [label="Pulling suture with both hands : grasper_left ; grasper_right"];
5 -> 27 [label="Reaching for suture with right hand : grasper_left ; grasper_right"];
5 -> 1 [label="Making a C Loop around the right hand : grasper_left ; grasper_right"];
5 -> 76 [label="Reaching for needle with left hand : grasper_left ; grasper_right"];
67 -> 129 [label="Dropping suture at end and moving to end points : grasper_left ; grasper_right"];
67 -> 34 [label="Pulling suture with both hands : grasper_left ; grasper_right"];
67 -> 51 [label="Reaching for suture with right hand : grasper_left ; grasper_right"];
67 -> 125 [label="Making a C Loop around the right hand : grasper_left ; grasper_right"];
67 -> 39 [label="Reaching for needle with left hand : grasper_left ; grasper_right"];
59 -> 122 [label="Dropping suture at end and moving to end points : grasper_left ; grasper_right"];
59 -> 25 [label="Pulling suture with both hands : grasper_left ; grasper_right"];
59 -> 43 [label="Reaching for suture with right hand : grasper_left ; grasper_right"];
59 -> 118 [label="Making a C Loop around the right hand : grasper_left ; grasper_right"];
59 -> 30 [label="Reaching for needle with left hand : grasper_left ; grasper_right"];
51 -> 115 [label="Dropping suture at end and moving to end points : grasper_left ; grasper_right"];
51 -> 15 [label="Pulling suture with both hands : grasper_left ; grasper_right"];
51 -> 67 [label="Reaching for suture with right hand : grasper_left ; grasper_right"];
51 -> 111 [label="Making a C Loop around the right hand : grasper_left ; grasper_right"];
51 -> 21 [label="Reaching for needle with left hand : grasper_left ; grasper_right"];
43 -> 108 [label="Dropping suture at end and moving to end points : grasper_left ; grasper_right"];
43 -> 3 [label="Pulling suture with both hands : grasper_left ; grasper_right"];
43 -> 59 [label="Reaching for suture with right hand : grasper_left ; grasper_right"];
43 -> 104 [label="Making a C Loop around the right hand : grasper_left ; grasper_right"];
43 -> 9 [label="Reaching for needle with left hand : grasper_left ; grasper_right"];
34 -> 101 [label="Dropping suture at end and moving to end points : grasper_left ; grasper_right"];
34 -> 67 [label="Pulling suture with both hands : grasper_left ; grasper_right"];
34 -> 15 [label="Reaching for suture with right hand : grasper_left ; grasper_right"];
34 -> 97 [label="Making a C Loop around the right hand : grasper_left ; grasper_right"];
34 -> 19 [label="Reaching for needle with left hand : grasper_left ; grasper_right"];
25 -> 94 [label="Dropping suture at end and moving to end points : grasper_left ; grasper_right"];
25 -> 59 [label="Pulling suture with both hands : grasper_left ; grasper_right"];
25 -> 3 [label="Reaching for suture with right hand : grasper_left ; grasper_right"];
25 -> 90 [label="Making a C Loop around the right hand : grasper_left ; grasper_right"];
25 -> 7 [label="Reaching for needle with left hand : grasper_left ; grasper_right"];
15 -> 87 [label="Dropping suture at end and moving to end points : grasper_left ; grasper_right"];
15 -> 51 [label="Pulling suture with both hands : grasper_left ; grasper_right"];
15 -> 34 [label="Reaching for suture with right hand : grasper_left ; grasper_right"];
15 -> 83 [label="Making a C Loop around the right hand : grasper_left ; grasper_right"];
15 -> 13 [label="Reaching for needle with left hand : grasper_left ; grasper_right"];
3 -> 80 [label="Dropping suture at end and moving to end points : grasper_left ; grasper_right"];
3 -> 43 [label="Pulling suture with both hands : grasper_left ; grasper_right"];
3 -> 25 [label="Reaching for suture with right hand : grasper_left ; grasper_right"];
3 -> 76 [label="Making a C Loop around the right hand : grasper_left ; grasper_right"];
3 -> 1 [label="Reaching for needle with left hand : grasper_left ; grasper_right"];
39 -> 73 [label="Dropping suture at end and moving to end points : grasper_left ; grasper_right"];
39 -> 19 [label="Pulling suture with both hands : grasper_left ; grasper_right"];
39 -> 21 [label="Reaching for suture with right hand : grasper_left ; grasper_right"];
39 -> 69 [label="Making a C Loop around the right hand : grasper_left ; grasper_right"];
39 -> 67 [label="Reaching for needle with left hand : grasper_left ; grasper_right"];
30 -> 65 [label="Dropping suture at end and moving to end points : grasper_left ; grasper_right"];
30 -> 7 [label="Pulling suture with both hands : grasper_left ; grasper_right"];
30 -> 9 [label="Reaching for suture with right hand : grasper_left ; grasper_right"];
30 -> 61 [label="Making a C Loop around the right hand : grasper_left ; grasper_right"];
30 -> 59 [label="Reaching for needle with left hand : grasper_left ; grasper_right"];
21 -> 57 [label="Dropping suture at end and moving to end points : grasper_left ; grasper_right"];
21 -> 13 [label="Pulling suture with both hands : grasper_left ; grasper_right"];
21 -> 39 [label="Reaching for suture with right hand : grasper_left ; grasper_right"];
21 -> 53 [label="Making a C Loop around the right hand : grasper_left ; grasper_right"];
21 -> 51 [label="Reaching for needle with left hand : grasper_left ; grasper_right"];
9 -> 49 [label="Dropping suture at end and moving to end points : grasper_left ; grasper_right"];
9 -> 1 [label="Pulling suture with both hands : grasper_left ; grasper_right"];
9 -> 30 [label="Reaching for suture with right hand : grasper_left ; grasper_right"];
9 -> 45 [label="Making a C Loop around the right hand : grasper_left ; grasper_right"];
9 -> 43 [label="Reaching for needle with left hand : grasper_left ; grasper_right"];
19 -> 41 [label="Dropping suture at end and moving to end points : grasper_left ; grasper_right"];
19 -> 39 [label="Pulling suture with both hands : grasper_left ; grasper_right"];
19 -> 13 [label="Reaching for suture with right hand : grasper_left ; grasper_right"];
19 -> 36 [label="Making a C Loop around the right hand : grasper_left ; grasper_right"];
19 -> 34 [label="Reaching for needle with left hand : grasper_left ; grasper_right"];
7 -> 32 [label="Dropping suture at end and moving to end points : grasper_left ; grasper_right"];
7 -> 30 [label="Pulling suture with both hands : grasper_left ; grasper_right"];
7 -> 1 [label="Reaching for suture with right hand : grasper_left ; grasper_right"];
7 -> 27 [label="Making a C Loop around the right hand : grasper_left ; grasper_right"];
7 -> 25 [label="Reaching for needle with left hand : grasper_left ; grasper_right"];
13 -> 23 [label="Dropping suture at end and moving to end points : grasper_left ; grasper_right"];
13 -> 21 [label="Pulling suture with both hands : grasper_left ; grasper_right"];
13 -> 19 [label="Reaching for suture with right hand : grasper_left ; grasper_right"];
13 -> 17 [label="Making a C Loop around the right hand : grasper_left ; grasper_right"];
13 -> 15 [label="Reaching for needle with left hand : grasper_left ; grasper_right"];
1 -> 13 [label="Reaching for needle with right hand : grasper_left ; grasper_right"];
1 -> 11 [label="Dropping suture at end and moving to end points : grasper_left ; grasper_right"];
1 -> 9 [label="Pulling suture with both hands : grasper_left ; grasper_right"];
1 -> 7 [label="Reaching for suture with right hand : grasper_left ; grasper_right"];
1 -> 5 [label="Making a C Loop around the right hand : grasper_left ; grasper_right"];
1 -> 3 [label="Reaching for needle with left hand : grasper_left ; grasper_right"];

}
    