
digraph seven {
node [shape=circle]

472 -> 439 [label="g"];
472 -> 441 [label="d"];
466 -> 392 [label="h"];
466 -> 432 [label="g"];
466 -> 246 [label="f"];
466 -> 248 [label="d"];
463 -> 428 [label="g"];
463 -> 430 [label="d"];
460 -> 423 [label="g"];
460 -> 425 [label="d"];
457 -> 418 [label="g"];
457 -> 420 [label="d"];
454 -> 463 [label="k"];
454 -> 414 [label="g"];
454 -> 416 [label="d"];
449 -> 454 [label="n"];
449 -> 460 [label="k"];
449 -> 380 [label="h"];
449 -> 408 [label="g"];
449 -> 233 [label="f"];
449 -> 235 [label="d"];
443 -> 374 [label="h"];
443 -> 401 [label="g"];
443 -> 227 [label="f"];
443 -> 229 [label="d"];
439 -> 472 [label="g"];
439 -> 437 [label="d"];
432 -> 357 [label="h"];
432 -> 466 [label="g"];
432 -> 210 [label="f"];
432 -> 212 [label="d"];
428 -> 463 [label="g"];
428 -> 426 [label="d"];
423 -> 460 [label="g"];
423 -> 421 [label="d"];
418 -> 457 [label="g"];
418 -> 406 [label="d"];
414 -> 428 [label="k"];
414 -> 454 [label="g"];
414 -> 412 [label="d"];
408 -> 423 [label="k"];
408 -> 341 [label="h"];
408 -> 449 [label="g"];
408 -> 193 [label="f"];
408 -> 195 [label="d"];
401 -> 335 [label="h"];
401 -> 443 [label="g"];
401 -> 187 [label="f"];
401 -> 189 [label="d"];
398 -> 364 [label="g"];
398 -> 366 [label="d"];
392 -> 398 [label="k"];
392 -> 466 [label="h"];
392 -> 357 [label="g"];
392 -> 175 [label="f"];
392 -> 289 [label="e"];
392 -> 178 [label="d"];
389 -> 353 [label="g"];
389 -> 355 [label="d"];
386 -> 349 [label="g"];
386 -> 351 [label="d"];
380 -> 449 [label="h"];
380 -> 341 [label="g"];
380 -> 162 [label="f"];
380 -> 164 [label="d"];
374 -> 386 [label="k"];
374 -> 443 [label="h"];
374 -> 335 [label="g"];
374 -> 153 [label="f"];
374 -> 279 [label="e"];
374 -> 156 [label="d"];
372 -> 370 [label="d"];
369 -> 372 [label="k"];
369 -> 335 [label="j"];
369 -> 367 [label="d"];
364 -> 398 [label="g"];
364 -> 362 [label="d"];
357 -> 364 [label="k"];
357 -> 432 [label="h"];
357 -> 392 [label="g"];
357 -> 139 [label="f"];
357 -> 267 [label="e"];
357 -> 142 [label="d"];
353 -> 389 [label="g"];
353 -> 346 [label="d"];
349 -> 386 [label="g"];
349 -> 347 [label="d"];
341 -> 408 [label="h"];
341 -> 380 [label="g"];
341 -> 122 [label="f"];
341 -> 124 [label="d"];
335 -> 341 [label="m"];
335 -> 349 [label="k"];
335 -> 369 [label="j"];
335 -> 401 [label="h"];
335 -> 374 [label="g"];
335 -> 111 [label="f"];
335 -> 255 [label="e"];
335 -> 114 [label="d"];
539 -> 677 [label="j"];
539 -> 510 [label="h"];
539 -> 512 [label="f"];
677 -> 539 [label="j"];
332 -> 315 [label="g"];
332 -> 317 [label="d"];
327 -> 332 [label="k"];
327 -> 289 [label="h"];
327 -> 309 [label="g"];
327 -> 101 [label="f"];
327 -> 103 [label="d"];
324 -> 305 [label="g"];
324 -> 307 [label="d"];
319 -> 324 [label="k"];
319 -> 677 [label="i"];
319 -> 279 [label="h"];
319 -> 299 [label="g"];
319 -> 91 [label="f"];
319 -> 93 [label="d"];
315 -> 332 [label="g"];
315 -> 313 [label="d"];
309 -> 315 [label="k"];
309 -> 267 [label="h"];
309 -> 327 [label="g"];
309 -> 79 [label="f"];
309 -> 81 [label="d"];
305 -> 324 [label="g"];
305 -> 303 [label="d"];
299 -> 305 [label="k"];
299 -> 255 [label="h"];
299 -> 319 [label="g"];
299 -> 67 [label="f"];
299 -> 69 [label="d"];
510 -> 539 [label="h"];
510 -> 508 [label="f"];
296 -> 275 [label="g"];
296 -> 277 [label="d"];
289 -> 327 [label="h"];
289 -> 267 [label="g"];
289 -> 55 [label="f"];
289 -> 392 [label="e"];
289 -> 59 [label="d"];
286 -> 263 [label="g"];
286 -> 265 [label="d"];
279 -> 319 [label="h"];
279 -> 255 [label="g"];
279 -> 43 [label="f"];
279 -> 374 [label="e"];
279 -> 47 [label="d"];
275 -> 296 [label="g"];
275 -> 273 [label="d"];
267 -> 309 [label="h"];
267 -> 289 [label="g"];
267 -> 28 [label="f"];
267 -> 357 [label="e"];
267 -> 32 [label="d"];
263 -> 286 [label="g"];
263 -> 261 [label="d"];
255 -> 299 [label="h"];
255 -> 279 [label="g"];
255 -> 13 [label="f"];
255 -> 335 [label="e"];
255 -> 17 [label="d"];
252 -> 217 [label="g"];
252 -> 219 [label="d"];
246 -> 252 [label="k"];
246 -> 175 [label="h"];
246 -> 210 [label="g"];
246 -> 466 [label="f"];
246 -> 181 [label="d"];
243 -> 206 [label="g"];
243 -> 208 [label="d"];
240 -> 202 [label="g"];
240 -> 204 [label="d"];
233 -> 162 [label="h"];
233 -> 193 [label="g"];
233 -> 449 [label="f"];
233 -> 167 [label="d"];
227 -> 240 [label="k"];
227 -> 153 [label="h"];
227 -> 187 [label="g"];
227 -> 443 [label="f"];
227 -> 159 [label="d"];
225 -> 223 [label="d"];
222 -> 225 [label="k"];
222 -> 187 [label="j"];
222 -> 220 [label="d"];
217 -> 252 [label="g"];
217 -> 215 [label="d"];
210 -> 217 [label="k"];
210 -> 139 [label="h"];
210 -> 246 [label="g"];
210 -> 432 [label="f"];
210 -> 145 [label="d"];
206 -> 243 [label="g"];
206 -> 199 [label="d"];
202 -> 240 [label="g"];
202 -> 200 [label="d"];
193 -> 122 [label="h"];
193 -> 233 [label="g"];
193 -> 408 [label="f"];
193 -> 128 [label="d"];
187 -> 202 [label="k"];
187 -> 222 [label="j"];
187 -> 111 [label="h"];
187 -> 227 [label="g"];
187 -> 401 [label="f"];
187 -> 117 [label="d"];
184 -> 149 [label="g"];
184 -> 151 [label="d"];
175 -> 246 [label="h"];
175 -> 139 [label="g"];
175 -> 392 [label="f"];
175 -> 55 [label="e"];
175 -> 57 [label="d"];
172 -> 135 [label="g"];
172 -> 137 [label="d"];
169 -> 130 [label="g"];
169 -> 132 [label="d"];
162 -> 172 [label="k"];
162 -> 233 [label="h"];
162 -> 122 [label="g"];
162 -> 380 [label="f"];
162 -> 126 [label="d"];
153 -> 227 [label="h"];
153 -> 111 [label="g"];
153 -> 374 [label="f"];
153 -> 43 [label="e"];
153 -> 45 [label="d"];
149 -> 184 [label="g"];
149 -> 147 [label="d"];
139 -> 210 [label="h"];
139 -> 175 [label="g"];
139 -> 357 [label="f"];
139 -> 28 [label="e"];
139 -> 30 [label="d"];
135 -> 172 [label="g"];
135 -> 133 [label="d"];
130 -> 169 [label="g"];
130 -> 119 [label="d"];
122 -> 135 [label="k"];
122 -> 193 [label="h"];
122 -> 162 [label="g"];
122 -> 341 [label="f"];
122 -> 120 [label="d"];
111 -> 187 [label="h"];
111 -> 153 [label="g"];
111 -> 335 [label="f"];
111 -> 13 [label="e"];
111 -> 15 [label="d"];
512 -> 508 [label="h"];
512 -> 539 [label="f"];
108 -> 87 [label="g"];
108 -> 89 [label="d"];
101 -> 55 [label="h"];
101 -> 79 [label="g"];
101 -> 327 [label="f"];
101 -> 62 [label="d"];
98 -> 75 [label="g"];
98 -> 77 [label="d"];
91 -> 43 [label="h"];
91 -> 67 [label="g"];
91 -> 319 [label="f"];
91 -> 50 [label="d"];
87 -> 108 [label="g"];
87 -> 85 [label="d"];
79 -> 28 [label="h"];
79 -> 101 [label="g"];
79 -> 309 [label="f"];
79 -> 36 [label="d"];
75 -> 98 [label="g"];
75 -> 73 [label="d"];
67 -> 13 [label="h"];
67 -> 91 [label="g"];
67 -> 299 [label="f"];
67 -> 21 [label="d"];
508 -> 506 [label="j"];
508 -> 512 [label="h"];
508 -> 510 [label="f"];
506 -> 508 [label="j"];
64 -> 39 [label="g"];
64 -> 41 [label="d"];
55 -> 64 [label="k"];
55 -> 101 [label="h"];
55 -> 28 [label="g"];
55 -> 289 [label="f"];
55 -> 175 [label="e"];
55 -> 34 [label="d"];
52 -> 24 [label="g"];
52 -> 26 [label="d"];
43 -> 52 [label="k"];
43 -> 91 [label="h"];
43 -> 13 [label="g"];
43 -> 279 [label="f"];
43 -> 153 [label="e"];
43 -> 19 [label="d"];
39 -> 64 [label="g"];
39 -> 37 [label="d"];
28 -> 39 [label="k"];
28 -> 79 [label="h"];
28 -> 55 [label="g"];
28 -> 267 [label="f"];
28 -> 139 [label="e"];
28 -> 11 [label="d"];
24 -> 52 [label="g"];
24 -> 22 [label="d"];
13 -> 24 [label="k"];
13 -> 67 [label="h"];
13 -> 43 [label="g"];
13 -> 255 [label="f"];
13 -> 111 [label="e"];
13 -> 7 [label="d"];
441 -> 437 [label="g"];
441 -> 472 [label="d"];
248 -> 441 [label="k"];
248 -> 178 [label="h"];
248 -> 212 [label="g"];
248 -> 181 [label="f"];
248 -> 466 [label="d"];
430 -> 426 [label="g"];
430 -> 463 [label="d"];
425 -> 421 [label="g"];
425 -> 460 [label="d"];
420 -> 406 [label="g"];
420 -> 457 [label="d"];
416 -> 412 [label="g"];
416 -> 454 [label="d"];
235 -> 164 [label="h"];
235 -> 195 [label="g"];
235 -> 167 [label="f"];
235 -> 449 [label="d"];
229 -> 420 [label="k"];
229 -> 156 [label="h"];
229 -> 189 [label="g"];
229 -> 159 [label="f"];
229 -> 443 [label="d"];
437 -> 441 [label="g"];
437 -> 439 [label="d"];
212 -> 437 [label="k"];
212 -> 142 [label="h"];
212 -> 248 [label="g"];
212 -> 145 [label="f"];
212 -> 432 [label="d"];
426 -> 430 [label="g"];
426 -> 428 [label="d"];
421 -> 425 [label="g"];
421 -> 423 [label="d"];
406 -> 420 [label="g"];
406 -> 418 [label="d"];
412 -> 416 [label="g"];
412 -> 414 [label="d"];
195 -> 124 [label="h"];
195 -> 235 [label="g"];
195 -> 128 [label="f"];
195 -> 408 [label="d"];
189 -> 406 [label="k"];
189 -> 114 [label="h"];
189 -> 229 [label="g"];
189 -> 117 [label="f"];
189 -> 401 [label="d"];
366 -> 362 [label="g"];
366 -> 398 [label="d"];
178 -> 248 [label="h"];
178 -> 142 [label="g"];
178 -> 57 [label="f"];
178 -> 59 [label="e"];
178 -> 392 [label="d"];
355 -> 346 [label="g"];
355 -> 389 [label="d"];
351 -> 347 [label="g"];
351 -> 386 [label="d"];
164 -> 355 [label="k"];
164 -> 235 [label="h"];
164 -> 124 [label="g"];
164 -> 126 [label="f"];
164 -> 380 [label="d"];
156 -> 229 [label="h"];
156 -> 114 [label="g"];
156 -> 45 [label="f"];
156 -> 47 [label="e"];
156 -> 374 [label="d"];
370 -> 372 [label="d"];
367 -> 369 [label="d"];
362 -> 366 [label="g"];
362 -> 364 [label="d"];
142 -> 212 [label="h"];
142 -> 178 [label="g"];
142 -> 30 [label="f"];
142 -> 32 [label="e"];
142 -> 357 [label="d"];
346 -> 355 [label="g"];
346 -> 353 [label="d"];
347 -> 351 [label="g"];
347 -> 349 [label="d"];
124 -> 346 [label="k"];
124 -> 195 [label="h"];
124 -> 164 [label="g"];
124 -> 120 [label="f"];
124 -> 341 [label="d"];
114 -> 189 [label="h"];
114 -> 156 [label="g"];
114 -> 15 [label="f"];
114 -> 17 [label="e"];
114 -> 335 [label="d"];
317 -> 313 [label="g"];
317 -> 332 [label="d"];
103 -> 59 [label="h"];
103 -> 81 [label="g"];
103 -> 62 [label="f"];
103 -> 327 [label="d"];
307 -> 303 [label="g"];
307 -> 324 [label="d"];
93 -> 47 [label="h"];
93 -> 69 [label="g"];
93 -> 50 [label="f"];
93 -> 319 [label="d"];
313 -> 317 [label="g"];
313 -> 315 [label="d"];
81 -> 32 [label="h"];
81 -> 103 [label="g"];
81 -> 36 [label="f"];
81 -> 309 [label="d"];
303 -> 307 [label="g"];
303 -> 305 [label="d"];
69 -> 17 [label="h"];
69 -> 93 [label="g"];
69 -> 21 [label="f"];
69 -> 299 [label="d"];
277 -> 273 [label="g"];
277 -> 296 [label="d"];
59 -> 277 [label="k"];
59 -> 103 [label="h"];
59 -> 32 [label="g"];
59 -> 34 [label="f"];
59 -> 178 [label="e"];
59 -> 289 [label="d"];
265 -> 261 [label="g"];
265 -> 286 [label="d"];
47 -> 265 [label="k"];
47 -> 93 [label="h"];
47 -> 17 [label="g"];
47 -> 19 [label="f"];
47 -> 156 [label="e"];
47 -> 279 [label="d"];
273 -> 277 [label="g"];
273 -> 275 [label="d"];
32 -> 273 [label="k"];
32 -> 81 [label="h"];
32 -> 59 [label="g"];
32 -> 11 [label="f"];
32 -> 142 [label="e"];
32 -> 267 [label="d"];
261 -> 265 [label="g"];
261 -> 263 [label="d"];
17 -> 261 [label="k"];
17 -> 69 [label="h"];
17 -> 47 [label="g"];
17 -> 7 [label="f"];
17 -> 114 [label="e"];
17 -> 255 [label="d"];
219 -> 215 [label="g"];
219 -> 252 [label="d"];
181 -> 57 [label="h"];
181 -> 145 [label="g"];
181 -> 248 [label="f"];
181 -> 246 [label="d"];
208 -> 199 [label="g"];
208 -> 243 [label="d"];
204 -> 200 [label="g"];
204 -> 240 [label="d"];
167 -> 208 [label="k"];
167 -> 126 [label="h"];
167 -> 128 [label="g"];
167 -> 235 [label="f"];
167 -> 233 [label="d"];
159 -> 45 [label="h"];
159 -> 117 [label="g"];
159 -> 229 [label="f"];
159 -> 227 [label="d"];
223 -> 225 [label="d"];
220 -> 222 [label="d"];
215 -> 219 [label="g"];
215 -> 217 [label="d"];
145 -> 30 [label="h"];
145 -> 181 [label="g"];
145 -> 212 [label="f"];
145 -> 210 [label="d"];
199 -> 208 [label="g"];
199 -> 206 [label="d"];
200 -> 204 [label="g"];
200 -> 202 [label="d"];
128 -> 199 [label="k"];
128 -> 120 [label="h"];
128 -> 167 [label="g"];
128 -> 195 [label="f"];
128 -> 193 [label="d"];
117 -> 15 [label="h"];
117 -> 159 [label="g"];
117 -> 189 [label="f"];
117 -> 187 [label="d"];
151 -> 147 [label="g"];
151 -> 184 [label="d"];
57 -> 151 [label="k"];
57 -> 181 [label="h"];
57 -> 30 [label="g"];
57 -> 178 [label="f"];
57 -> 34 [label="e"];
57 -> 175 [label="d"];
137 -> 133 [label="g"];
137 -> 172 [label="d"];
132 -> 119 [label="g"];
132 -> 169 [label="d"];
126 -> 167 [label="h"];
126 -> 120 [label="g"];
126 -> 164 [label="f"];
126 -> 162 [label="d"];
45 -> 132 [label="k"];
45 -> 159 [label="h"];
45 -> 15 [label="g"];
45 -> 156 [label="f"];
45 -> 19 [label="e"];
45 -> 153 [label="d"];
147 -> 151 [label="g"];
147 -> 149 [label="d"];
30 -> 147 [label="k"];
30 -> 145 [label="h"];
30 -> 57 [label="g"];
30 -> 142 [label="f"];
30 -> 11 [label="e"];
30 -> 139 [label="d"];
133 -> 137 [label="g"];
133 -> 135 [label="d"];
119 -> 132 [label="g"];
119 -> 130 [label="d"];
120 -> 128 [label="h"];
120 -> 126 [label="g"];
120 -> 124 [label="f"];
120 -> 122 [label="d"];
15 -> 119 [label="k"];
15 -> 117 [label="h"];
15 -> 45 [label="g"];
15 -> 114 [label="f"];
15 -> 7 [label="e"];
15 -> 111 [label="d"];
89 -> 85 [label="g"];
89 -> 108 [label="d"];
62 -> 89 [label="k"];
62 -> 34 [label="h"];
62 -> 36 [label="g"];
62 -> 103 [label="f"];
62 -> 101 [label="d"];
77 -> 73 [label="g"];
77 -> 98 [label="d"];
50 -> 77 [label="k"];
50 -> 19 [label="h"];
50 -> 21 [label="g"];
50 -> 93 [label="f"];
50 -> 91 [label="d"];
85 -> 89 [label="g"];
85 -> 87 [label="d"];
36 -> 85 [label="k"];
36 -> 11 [label="h"];
36 -> 62 [label="g"];
36 -> 81 [label="f"];
36 -> 79 [label="d"];
73 -> 77 [label="g"];
73 -> 75 [label="d"];
21 -> 73 [label="k"];
21 -> 7 [label="h"];
21 -> 50 [label="g"];
21 -> 69 [label="f"];
21 -> 67 [label="d"];
41 -> 37 [label="g"];
41 -> 64 [label="d"];
34 -> 62 [label="h"];
34 -> 11 [label="g"];
34 -> 59 [label="f"];
34 -> 57 [label="e"];
34 -> 55 [label="d"];
26 -> 22 [label="g"];
26 -> 52 [label="d"];
19 -> 50 [label="h"];
19 -> 7 [label="g"];
19 -> 47 [label="f"];
19 -> 45 [label="e"];
19 -> 43 [label="d"];
37 -> 41 [label="g"];
37 -> 39 [label="d"];
11 -> 36 [label="h"];
11 -> 34 [label="g"];
11 -> 32 [label="f"];
11 -> 30 [label="e"];
11 -> 28 [label="d"];
22 -> 26 [label="g"];
22 -> 24 [label="d"];
7 -> 21 [label="h"];
7 -> 19 [label="g"];
7 -> 17 [label="f"];
7 -> 15 [label="e"];
7 -> 13 [label="d"];
9 -> 11 [label="c"];
5 -> 9 [label="l"];
5 -> 7 [label="c"];
3 -> 5 [label="b"];
1 -> 3 [label="a"];

}
    