
digraph seven {
node [shape=circle]

40 -> 36 [label="b"];
38 -> 31 [label="b"];
34 -> 40 [label="c"];
34 -> 32 [label="b"];
29 -> 34 [label="e"];
29 -> 38 [label="c"];
29 -> 13 [label="b"];
29 -> 15 [label="a"];
26 -> 24 [label="b"];
22 -> 26 [label="c"];
22 -> 3 [label="b"];
22 -> 5 [label="a"];
19 -> 17 [label="b"];
15 -> 19 [label="c"];
15 -> 9 [label="b"];
15 -> 29 [label="a"];
11 -> 7 [label="b"];
5 -> 11 [label="c"];
5 -> 1 [label="b"];
5 -> 22 [label="a"];
36 -> 40 [label="b"];
31 -> 38 [label="b"];
32 -> 36 [label="c"];
32 -> 34 [label="b"];
13 -> 31 [label="c"];
13 -> 29 [label="b"];
13 -> 9 [label="a"];
24 -> 26 [label="b"];
3 -> 24 [label="c"];
3 -> 22 [label="b"];
3 -> 1 [label="a"];
17 -> 19 [label="b"];
9 -> 17 [label="c"];
9 -> 15 [label="b"];
9 -> 13 [label="a"];
7 -> 11 [label="b"];
1 -> 9 [label="d"];
1 -> 7 [label="c"];
1 -> 5 [label="b"];
1 -> 3 [label="a"];

}
    