
digraph seven {
node [shape=circle]

987 -> 880 [label="install : classic ; forceps ; drainage"];
1040 -> 1033 [label="sew : needle-holders"];
1040 -> 1035 [label="hold : classic ; forceps"];
1038 -> 1036 [label="hold : classic ; forceps"];
1038 -> 1015 [label="sew : drainage ; needle-holders"];
1033 -> 1030 [label="coagulate : bipolar ; forceps"];
1033 -> 1040 [label="sew : needle-holders"];
1033 -> 1031 [label="hold : classic ; forceps"];
1030 -> 1033 [label="coagulate : bipolar ; forceps"];
1030 -> 1028 [label="hold : classic ; forceps"];
1026 -> 1024 [label="hold : classic ; forceps"];
1026 -> 1004 [label="sew : drainage ; needle-holders"];
1022 -> 1011 [label="hold : classic ; forceps"];
1019 -> 1017 [label="hold : classic ; forceps"];
1015 -> 1009 [label="sew : needle-holders"];
1015 -> 1013 [label="hold : classic ; forceps"];
1015 -> 1038 [label="sew : drainage ; needle-holders"];
1009 -> 1015 [label="sew : needle-holders"];
1009 -> 997 [label="hold : classic ; forceps"];
1006 -> 999 [label="hold : classic ; forceps"];
1004 -> 1002 [label="hold : classic ; forceps"];
1004 -> 1026 [label="sew : drainage ; needle-holders"];
876 -> 1004 [label="hold : dissectors"];
876 -> 1000 [label="hold : classic ; forceps"];
972 -> 573 [label="hold : classic ; forceps"];
972 -> 970 [label="hold : retractors"];
969 -> 570 [label="hold : classic ; forceps"];
969 -> 967 [label="hold : retractors"];
965 -> 923 [label="hold : retractors"];
1035 -> 1031 [label="sew : needle-holders"];
1035 -> 1040 [label="hold : classic ; forceps"];
1036 -> 1038 [label="hold : classic ; forceps"];
1031 -> 1035 [label="sew : needle-holders"];
1031 -> 1033 [label="hold : classic ; forceps"];
1028 -> 1030 [label="hold : classic ; forceps"];
1024 -> 1028 [label="sew : needle-holders"];
1024 -> 1026 [label="hold : classic ; forceps"];
1011 -> 1017 [label="sew : needle-holders"];
1011 -> 1022 [label="hold : classic ; forceps"];
1017 -> 573 [label="hold : classic ; forceps"];
1017 -> 1019 [label="hold : classic ; forceps"];
1013 -> 997 [label="sew : needle-holders"];
1013 -> 1015 [label="hold : classic ; forceps"];
997 -> 1013 [label="sew : needle-holders"];
997 -> 1011 [label="hold : classic ; forceps"];
997 -> 1009 [label="hold : classic ; forceps"];
999 -> 573 [label="coagulate : bipolar ; forceps"];
999 -> 1006 [label="hold : classic ; forceps"];
1002 -> 1004 [label="hold : classic ; forceps"];
1000 -> 876 [label="hold : classic ; forceps"];
573 -> 999 [label="coagulate : bipolar ; forceps"];
573 -> 997 [label="sew : needle-holders"];
573 -> 972 [label="hold : classic ; forceps"];
573 -> 930 [label="hold : retractors"];
573 -> 540 [label="remove : classic ; forceps ; drape"];
570 -> 969 [label="hold : classic ; forceps"];
570 -> 924 [label="hold : retractors"];
570 -> 556 [label="remove : classic ; forceps ; drape"];
567 -> 989 [label="sew : needle-holders"];
567 -> 987 [label="dissect : dissectors"];
567 -> 586 [label="hold : retractors"];
567 -> 553 [label="remove : classic ; forceps ; drape"];
963 -> 961 [label="hold : classic ; forceps"];
963 -> 958 [label="sew : drainage ; needle-holders"];
958 -> 953 [label="sew : needle-holders"];
958 -> 956 [label="hold : classic ; forceps"];
958 -> 963 [label="sew : drainage ; needle-holders"];
953 -> 958 [label="sew : needle-holders"];
953 -> 940 [label="hold : classic ; forceps"];
948 -> 946 [label="hold : classic ; forceps"];
943 -> 941 [label="hold : classic ; forceps"];
938 -> 935 [label="hold : classic ; forceps"];
933 -> 929 [label="hold : classic ; forceps"];
970 -> 972 [label="hold : retractors"];
967 -> 969 [label="hold : retractors"];
923 -> 586 [label="hold : classic ; forceps"];
923 -> 965 [label="hold : retractors"];
961 -> 963 [label="hold : classic ; forceps"];
956 -> 940 [label="sew : needle-holders"];
956 -> 941 [label="hold : classic ; forceps"];
956 -> 958 [label="hold : classic ; forceps"];
940 -> 956 [label="sew : needle-holders"];
940 -> 946 [label="sew : needle-holders"];
940 -> 953 [label="hold : classic ; forceps"];
560 -> 944 [label="sew : needle-holders"];
560 -> 558 [label="remove : classic ; forceps ; drape"];
946 -> 929 [label="hold : classic ; forceps"];
946 -> 948 [label="hold : classic ; forceps"];
944 -> 924 [label="hold : classic ; forceps"];
941 -> 943 [label="hold : classic ; forceps"];
935 -> 940 [label="hold : classic ; forceps"];
935 -> 938 [label="hold : classic ; forceps"];
927 -> 560 [label="hold : classic ; forceps"];
929 -> 935 [label="sew : needle-holders"];
929 -> 933 [label="hold : classic ; forceps"];
930 -> 573 [label="hold : retractors"];
924 -> 929 [label="coagulate : bipolar ; forceps"];
924 -> 927 [label="sew : needle-holders"];
924 -> 570 [label="hold : retractors"];
586 -> 923 [label="hold : classic ; forceps"];
586 -> 567 [label="hold : retractors"];
905 -> 901 [label="sew : needle-holders"];
905 -> 895 [label="hold : classic ; forceps"];
905 -> 903 [label="hold : classic ; forceps"];
901 -> 905 [label="sew : needle-holders"];
901 -> 898 [label="sew : needle-holders"];
901 -> 899 [label="hold : classic ; forceps"];
898 -> 889 [label="hold : classic ; forceps"];
898 -> 896 [label="hold : classic ; forceps"];
895 -> 893 [label="hold : classic ; forceps"];
892 -> 901 [label="hold : classic ; forceps"];
892 -> 890 [label="hold : classic ; forceps"];
889 -> 892 [label="sew : needle-holders"];
889 -> 884 [label="hold : classic ; forceps"];
886 -> 882 [label="hold : classic ; forceps"];
903 -> 899 [label="sew : needle-holders"];
903 -> 905 [label="hold : classic ; forceps"];
899 -> 903 [label="sew : needle-holders"];
899 -> 901 [label="hold : classic ; forceps"];
896 -> 898 [label="hold : classic ; forceps"];
893 -> 895 [label="hold : classic ; forceps"];
890 -> 892 [label="hold : classic ; forceps"];
884 -> 889 [label="hold : classic ; forceps"];
884 -> 882 [label="sew : drainage ; needle-holders"];
882 -> 886 [label="hold : classic ; forceps"];
882 -> 884 [label="sew : drainage ; needle-holders"];
880 -> 882 [label="swab : classic ; forceps ; cottonoids"];
864 -> 854 [label="hold : classic ; forceps"];
750 -> 621 [label="hold : retractors"];
859 -> 289 [label="hold : classic ; forceps"];
859 -> 876 [label="install : classic ; forceps ; drainage"];
747 -> 610 [label="hold : classic ; forceps"];
747 -> 745 [label="hold : retractors"];
744 -> 601 [label="hold : classic ; forceps"];
744 -> 742 [label="hold : retractors"];
740 -> 598 [label="hold : retractors"];
737 -> 588 [label="hold : retractors"];
547 -> 865 [label="sew : needle-holders"];
547 -> 545 [label="remove : classic ; forceps ; drape"];
865 -> 596 [label="hold : classic ; forceps"];
854 -> 864 [label="hold : classic ; forceps"];
850 -> 547 [label="hold : classic ; forceps"];
542 -> 618 [label="hold : retractors"];
542 -> 500 [label="remove : classic ; forceps ; drape"];
289 -> 859 [label="hold : classic ; forceps"];
610 -> 747 [label="hold : classic ; forceps"];
610 -> 207 [label="hold : retractors"];
605 -> 603 [label="hold : retractors"];
601 -> 854 [label="sew : needle-holders"];
601 -> 744 [label="hold : classic ; forceps"];
601 -> 200 [label="hold : retractors"];
596 -> 850 [label="sew : needle-holders"];
596 -> 193 [label="hold : retractors"];
584 -> 567 [label="install : classic ; forceps ; drainage"];
584 -> 179 [label="hold : retractors"];
844 -> 793 [label="swab : classic ; forceps ; cottonoids"];
842 -> 844 [label="irrigate : saline solution"];
840 -> 842 [label="coagulate : bipolar ; forceps"];
838 -> 840 [label="hold : suction tube"];
792 -> 838 [label="irrigate : saline solution"];
827 -> 816 [label="hold : classic ; forceps"];
823 -> 818 [label="sew : needle-holders"];
823 -> 821 [label="hold : classic ; forceps"];
818 -> 823 [label="sew : needle-holders"];
818 -> 814 [label="hold : classic ; forceps"];
812 -> 805 [label="hold : classic ; forceps"];
809 -> 807 [label="hold : classic ; forceps"];
803 -> 801 [label="hold : classic ; forceps"];
799 -> 534 [label="hold : classic ; forceps"];
816 -> 827 [label="hold : classic ; forceps"];
816 -> 814 [label="sew : drainage ; needle-holders"];
821 -> 814 [label="sew : needle-holders"];
821 -> 823 [label="hold : classic ; forceps"];
814 -> 821 [label="sew : needle-holders"];
814 -> 807 [label="hold : classic ; forceps"];
814 -> 818 [label="hold : classic ; forceps"];
814 -> 816 [label="sew : drainage ; needle-holders"];
805 -> 814 [label="sew : needle-holders"];
805 -> 812 [label="hold : classic ; forceps"];
807 -> 801 [label="sew : needle-holders"];
807 -> 809 [label="hold : classic ; forceps"];
801 -> 534 [label="coagulate : bipolar ; forceps"];
801 -> 805 [label="hold : classic ; forceps"];
801 -> 803 [label="hold : classic ; forceps"];
534 -> 801 [label="coagulate : bipolar ; forceps"];
534 -> 799 [label="hold : classic ; forceps"];
534 -> 493 [label="remove : classic ; forceps ; drape"];
795 -> 793 [label="sew : drainage ; needle-holders"];
793 -> 795 [label="sew : drainage ; needle-holders"];
656 -> 792 [label="swab : classic ; forceps ; cottonoids"];
735 -> 708 [label="hold : classic ; forceps"];
732 -> 701 [label="hold : classic ; forceps"];
728 -> 718 [label="sew : needle-holders"];
728 -> 720 [label="hold : classic ; forceps"];
726 -> 724 [label="hold : classic ; forceps"];
726 -> 688 [label="sew : drainage ; needle-holders"];
723 -> 721 [label="hold : classic ; forceps"];
723 -> 684 [label="sew : drainage ; needle-holders"];
718 -> 728 [label="sew : needle-holders"];
718 -> 679 [label="hold : classic ; forceps"];
714 -> 703 [label="sew : needle-holders"];
714 -> 705 [label="hold : classic ; forceps"];
710 -> 696 [label="sew : needle-holders"];
710 -> 699 [label="hold : classic ; forceps"];
703 -> 714 [label="sew : needle-holders"];
703 -> 694 [label="hold : classic ; forceps"];
696 -> 710 [label="sew : needle-holders"];
696 -> 644 [label="hold : classic ; forceps"];
692 -> 521 [label="hold : classic ; forceps"];
688 -> 674 [label="sew : needle-holders"];
688 -> 677 [label="hold : classic ; forceps"];
688 -> 726 [label="sew : drainage ; needle-holders"];
684 -> 666 [label="sew : needle-holders"];
684 -> 669 [label="hold : classic ; forceps"];
684 -> 723 [label="sew : drainage ; needle-holders"];
681 -> 671 [label="hold : classic ; forceps"];
674 -> 688 [label="sew : needle-holders"];
674 -> 660 [label="hold : classic ; forceps"];
666 -> 684 [label="sew : needle-holders"];
666 -> 631 [label="hold : classic ; forceps"];
663 -> 661 [label="hold : classic ; forceps"];
658 -> 617 [label="hold : classic ; forceps"];
650 -> 648 [label="hold : classic ; forceps"];
647 -> 645 [label="hold : classic ; forceps"];
642 -> 626 [label="hold : classic ; forceps"];
640 -> 638 [label="hold : classic ; forceps"];
636 -> 634 [label="hold : classic ; forceps"];
629 -> 590 [label="hold : classic ; forceps"];
624 -> 226 [label="hold : classic ; forceps"];
621 -> 618 [label="hold : classic ; forceps"];
621 -> 750 [label="hold : retractors"];
615 -> 613 [label="hold : classic ; forceps"];
745 -> 747 [label="hold : retractors"];
742 -> 744 [label="hold : retractors"];
598 -> 193 [label="hold : classic ; forceps"];
598 -> 740 [label="hold : retractors"];
588 -> 179 [label="hold : classic ; forceps"];
588 -> 737 [label="hold : retractors"];
708 -> 735 [label="hold : classic ; forceps"];
708 -> 699 [label="sew : drainage ; needle-holders"];
701 -> 732 [label="hold : classic ; forceps"];
701 -> 694 [label="sew : drainage ; needle-holders"];
720 -> 679 [label="sew : needle-holders"];
720 -> 728 [label="hold : classic ; forceps"];
724 -> 726 [label="hold : classic ; forceps"];
721 -> 723 [label="hold : classic ; forceps"];
679 -> 720 [label="sew : needle-holders"];
679 -> 718 [label="hold : classic ; forceps"];
679 -> 671 [label="sew : drainage ; needle-holders"];
705 -> 694 [label="sew : needle-holders"];
705 -> 714 [label="hold : classic ; forceps"];
699 -> 644 [label="sew : needle-holders"];
699 -> 645 [label="hold : classic ; forceps"];
699 -> 710 [label="hold : classic ; forceps"];
699 -> 708 [label="sew : drainage ; needle-holders"];
694 -> 521 [label="coagulate : bipolar ; forceps"];
694 -> 705 [label="sew : needle-holders"];
694 -> 703 [label="hold : classic ; forceps"];
694 -> 701 [label="sew : drainage ; needle-holders"];
644 -> 699 [label="sew : needle-holders"];
644 -> 661 [label="sew : needle-holders"];
644 -> 696 [label="hold : classic ; forceps"];
521 -> 694 [label="coagulate : bipolar ; forceps"];
521 -> 692 [label="hold : classic ; forceps"];
521 -> 517 [label="remove : classic ; forceps ; drape"];
677 -> 660 [label="sew : needle-holders"];
677 -> 688 [label="hold : classic ; forceps"];
669 -> 631 [label="sew : needle-holders"];
669 -> 638 [label="hold : classic ; forceps"];
669 -> 684 [label="hold : classic ; forceps"];
671 -> 631 [label="coagulate : bipolar ; forceps"];
671 -> 681 [label="hold : classic ; forceps"];
671 -> 679 [label="sew : drainage ; needle-holders"];
660 -> 677 [label="sew : needle-holders"];
660 -> 634 [label="hold : classic ; forceps"];
660 -> 674 [label="hold : classic ; forceps"];
653 -> 632 [label="hold : classic ; forceps"];
631 -> 671 [label="coagulate : bipolar ; forceps"];
631 -> 669 [label="sew : needle-holders"];
631 -> 648 [label="sew : needle-holders"];
631 -> 666 [label="hold : classic ; forceps"];
661 -> 226 [label="hold : classic ; forceps"];
661 -> 663 [label="hold : classic ; forceps"];
617 -> 660 [label="sew : needle-holders"];
617 -> 658 [label="hold : classic ; forceps"];
607 -> 656 [label="dissect : dissectors"];
593 -> 617 [label="coagulate : bipolar ; forceps"];
593 -> 653 [label="sew : needle-holders"];
648 -> 179 [label="hold : classic ; forceps"];
648 -> 650 [label="hold : classic ; forceps"];
645 -> 647 [label="hold : classic ; forceps"];
626 -> 644 [label="hold : classic ; forceps"];
626 -> 642 [label="hold : classic ; forceps"];
638 -> 640 [label="hold : classic ; forceps"];
634 -> 613 [label="sew : needle-holders"];
634 -> 636 [label="hold : classic ; forceps"];
632 -> 190 [label="sew : needle-holders"];
590 -> 631 [label="hold : classic ; forceps"];
590 -> 629 [label="hold : classic ; forceps"];
237 -> 82 [label="remove : classic ; forceps ; drape"];
226 -> 626 [label="sew : needle-holders"];
226 -> 624 [label="hold : classic ; forceps"];
226 -> 77 [label="remove : classic ; forceps ; drape"];
618 -> 621 [label="hold : classic ; forceps"];
618 -> 542 [label="hold : retractors"];
613 -> 617 [label="hold : classic ; forceps"];
613 -> 615 [label="hold : classic ; forceps"];
207 -> 612 [label="sew : needle-holders"];
207 -> 610 [label="hold : retractors"];
207 -> 55 [label="remove : classic ; forceps ; drape"];
603 -> 607 [label="hold : classic ; forceps"];
603 -> 605 [label="hold : retractors"];
200 -> 603 [label="hold : suction tube"];
200 -> 601 [label="hold : retractors"];
200 -> 39 [label="remove : classic ; forceps ; drape"];
193 -> 598 [label="hold : classic ; forceps"];
193 -> 596 [label="hold : retractors"];
193 -> 31 [label="remove : classic ; forceps ; drape"];
190 -> 593 [label="hold : classic ; forceps"];
190 -> 27 [label="remove : classic ; forceps ; drape"];
179 -> 590 [label="sew : needle-holders"];
179 -> 588 [label="hold : classic ; forceps"];
179 -> 586 [label="install : classic ; forceps ; drainage"];
179 -> 584 [label="hold : retractors"];
179 -> 5 [label="remove : classic ; forceps ; drape"];
579 -> 575 [label="swab : classic ; forceps ; cottonoids"];
550 -> 532 [label="hold : retractors"];
563 -> 579 [label="coagulate : bipolar ; forceps"];
563 -> 561 [label="hold : retractors"];
575 -> 556 [label="coagulate : bipolar ; forceps"];
540 -> 498 [label="hold : retractors"];
540 -> 573 [label="remove : classic ; forceps ; drape"];
556 -> 554 [label="hold : retractors"];
556 -> 570 [label="remove : classic ; forceps ; drape"];
553 -> 551 [label="hold : retractors"];
553 -> 567 [label="remove : classic ; forceps ; drape"];
532 -> 561 [label="install : retractors"];
532 -> 550 [label="hold : retractors"];
561 -> 563 [label="hold : retractors"];
558 -> 560 [label="remove : classic ; forceps ; drape"];
498 -> 540 [label="hold : retractors"];
554 -> 556 [label="hold : retractors"];
551 -> 553 [label="hold : retractors"];
124 -> 550 [label="install : classic ; forceps ; drainage"];
124 -> 529 [label="hold : retractors"];
545 -> 547 [label="remove : classic ; forceps ; drape"];
121 -> 503 [label="hold : retractors"];
500 -> 480 [label="hold : retractors"];
500 -> 542 [label="remove : classic ; forceps ; drape"];
496 -> 540 [label="install : classic ; forceps ; drainage"];
496 -> 55 [label="hold : retractors"];
487 -> 39 [label="hold : retractors"];
484 -> 31 [label="hold : retractors"];
478 -> 5 [label="hold : retractors"];
493 -> 534 [label="remove : classic ; forceps ; drape"];
529 -> 532 [label="install : classic ; forceps ; drainage"];
529 -> 124 [label="hold : retractors"];
515 -> 513 [label="sew : drainage ; needle-holders"];
525 -> 512 [label="sew : needle-holders"];
525 -> 513 [label="hold : classic ; forceps"];
512 -> 525 [label="sew : needle-holders"];
512 -> 518 [label="sew : needle-holders"];
517 -> 509 [label="hold : classic ; forceps"];
517 -> 521 [label="remove : classic ; forceps ; drape"];
518 -> 82 [label="hold : classic ; forceps"];
502 -> 517 [label="sew : needle-holders"];
513 -> 515 [label="sew : drainage ; needle-holders"];
508 -> 512 [label="hold : classic ; forceps"];
509 -> 480 [label="sew : needle-holders"];
82 -> 508 [label="sew : needle-holders"];
82 -> 237 [label="remove : classic ; forceps ; drape"];
77 -> 226 [label="remove : classic ; forceps ; drape"];
503 -> 121 [label="hold : retractors"];
480 -> 502 [label="hold : classic ; forceps"];
480 -> 500 [label="hold : retractors"];
55 -> 498 [label="install : classic ; forceps ; drainage"];
55 -> 496 [label="hold : retractors"];
55 -> 207 [label="remove : classic ; forceps ; drape"];
491 -> 493 [label="swab : classic ; forceps ; cottonoids"];
489 -> 491 [label="install : retractors"];
39 -> 489 [label="remove : cottonoids ; classic ; forceps"];
39 -> 487 [label="hold : retractors"];
39 -> 200 [label="remove : classic ; forceps ; drape"];
31 -> 484 [label="hold : retractors"];
31 -> 193 [label="remove : classic ; forceps ; drape"];
27 -> 190 [label="remove : classic ; forceps ; drape"];
5 -> 480 [label="irrigate : saline solution"];
5 -> 478 [label="hold : retractors"];
5 -> 179 [label="remove : classic ; forceps ; drape"];
457 -> 453 [label="sew : needle-holders"];
457 -> 447 [label="hold : classic ; forceps"];
457 -> 455 [label="hold : classic ; forceps"];
453 -> 457 [label="sew : needle-holders"];
453 -> 450 [label="sew : needle-holders"];
453 -> 451 [label="hold : classic ; forceps"];
450 -> 441 [label="hold : classic ; forceps"];
450 -> 448 [label="hold : classic ; forceps"];
447 -> 445 [label="hold : classic ; forceps"];
444 -> 453 [label="hold : classic ; forceps"];
444 -> 442 [label="hold : classic ; forceps"];
441 -> 444 [label="sew : needle-holders"];
441 -> 439 [label="hold : classic ; forceps"];
441 -> 426 [label="sew : drainage ; needle-holders"];
426 -> 413 [label="hold : classic ; forceps"];
426 -> 441 [label="sew : drainage ; needle-holders"];
426 -> 424 [label="hold : retractors"];
455 -> 451 [label="sew : needle-holders"];
455 -> 457 [label="hold : classic ; forceps"];
451 -> 455 [label="sew : needle-holders"];
451 -> 453 [label="hold : classic ; forceps"];
448 -> 450 [label="hold : classic ; forceps"];
445 -> 447 [label="hold : classic ; forceps"];
442 -> 444 [label="hold : classic ; forceps"];
439 -> 441 [label="hold : classic ; forceps"];
413 -> 426 [label="hold : classic ; forceps"];
413 -> 411 [label="hold : retractors"];
401 -> 426 [label="swab : classic ; forceps ; cottonoids"];
401 -> 383 [label="hold : retractors"];
353 -> 401 [label="install : retractors"];
353 -> 254 [label="hold : retractors"];
381 -> 379 [label="hold : retractors"];
375 -> 173 [label="hold : retractors"];
423 -> 418 [label="hold : classic ; forceps"];
420 -> 416 [label="hold : classic ; forceps"];
278 -> 420 [label="hold : dissectors"];
278 -> 414 [label="hold : classic ; forceps"];
424 -> 426 [label="hold : retractors"];
418 -> 423 [label="hold : classic ; forceps"];
418 -> 416 [label="sew : drainage ; needle-holders"];
416 -> 420 [label="hold : classic ; forceps"];
416 -> 418 [label="sew : drainage ; needle-holders"];
414 -> 278 [label="hold : classic ; forceps"];
411 -> 413 [label="hold : retractors"];
397 -> 395 [label="hold : classic ; forceps"];
397 -> 393 [label="sew : drainage ; needle-holders"];
393 -> 389 [label="sew : needle-holders"];
393 -> 391 [label="hold : classic ; forceps"];
393 -> 397 [label="sew : drainage ; needle-holders"];
389 -> 393 [label="sew : needle-holders"];
389 -> 387 [label="hold : classic ; forceps"];
385 -> 378 [label="hold : classic ; forceps"];
383 -> 379 [label="hold : classic ; forceps"];
383 -> 401 [label="hold : retractors"];
254 -> 173 [label="hold : classic ; forceps"];
254 -> 353 [label="hold : retractors"];
395 -> 397 [label="hold : classic ; forceps"];
391 -> 387 [label="sew : needle-holders"];
391 -> 393 [label="hold : classic ; forceps"];
387 -> 391 [label="sew : needle-holders"];
387 -> 389 [label="hold : classic ; forceps"];
378 -> 387 [label="remove : drape ; scissors"];
378 -> 385 [label="hold : classic ; forceps"];
379 -> 383 [label="hold : classic ; forceps"];
379 -> 381 [label="hold : retractors"];
173 -> 378 [label="sew : needle-holders"];
173 -> 254 [label="hold : classic ; forceps"];
173 -> 375 [label="hold : retractors"];
173 -> 171 [label="remove : classic ; forceps ; drape"];
273 -> 264 [label="hold : retractors"];
262 -> 221 [label="hold : retractors"];
343 -> 341 [label="hold : classic ; forceps"];
343 -> 320 [label="sew : drainage ; needle-holders"];
339 -> 335 [label="sew : needle-holders"];
339 -> 337 [label="hold : classic ; forceps"];
335 -> 339 [label="sew : needle-holders"];
335 -> 307 [label="hold : classic ; forceps"];
331 -> 311 [label="hold : classic ; forceps"];
326 -> 324 [label="hold : classic ; forceps"];
320 -> 315 [label="sew : needle-holders"];
320 -> 317 [label="hold : classic ; forceps"];
320 -> 343 [label="sew : drainage ; needle-holders"];
315 -> 320 [label="sew : needle-holders"];
315 -> 313 [label="hold : classic ; forceps"];
309 -> 300 [label="hold : classic ; forceps"];
258 -> 118 [label="hold : classic ; forceps"];
258 -> 256 [label="hold : retractors"];
298 -> 296 [label="hold : classic ; forceps"];
252 -> 353 [label="install : classic ; forceps ; drainage"];
252 -> 217 [label="hold : retractors"];
291 -> 282 [label="hold : classic ; forceps"];
249 -> 209 [label="hold : classic ; forceps"];
249 -> 247 [label="hold : retractors"];
246 -> 202 [label="hold : classic ; forceps"];
246 -> 244 [label="hold : retractors"];
242 -> 197 [label="hold : retractors"];
239 -> 183 [label="hold : retractors"];
341 -> 343 [label="hold : classic ; forceps"];
337 -> 307 [label="sew : needle-holders"];
337 -> 339 [label="hold : classic ; forceps"];
307 -> 337 [label="sew : needle-holders"];
307 -> 335 [label="hold : classic ; forceps"];
307 -> 300 [label="sew : drainage ; needle-holders"];
311 -> 324 [label="sew : needle-holders"];
311 -> 331 [label="hold : classic ; forceps"];
305 -> 311 [label="coagulate : bipolar ; forceps"];
305 -> 322 [label="sew : needle-holders"];
324 -> 296 [label="hold : classic ; forceps"];
324 -> 326 [label="hold : classic ; forceps"];
322 -> 115 [label="hold : classic ; forceps"];
317 -> 313 [label="sew : needle-holders"];
317 -> 320 [label="hold : classic ; forceps"];
313 -> 300 [label="coagulate : bipolar ; forceps"];
313 -> 317 [label="sew : needle-holders"];
313 -> 315 [label="hold : classic ; forceps"];
300 -> 313 [label="coagulate : bipolar ; forceps"];
300 -> 311 [label="hold : classic ; forceps"];
300 -> 309 [label="hold : classic ; forceps"];
300 -> 307 [label="sew : drainage ; needle-holders"];
295 -> 305 [label="hold : classic ; forceps"];
118 -> 258 [label="hold : classic ; forceps"];
118 -> 218 [label="hold : retractors"];
118 -> 67 [label="remove : classic ; forceps ; drape"];
296 -> 300 [label="sew : needle-holders"];
296 -> 298 [label="hold : classic ; forceps"];
115 -> 295 [label="sew : needle-holders"];
115 -> 187 [label="hold : retractors"];
115 -> 64 [label="remove : classic ; forceps ; drape"];
282 -> 291 [label="hold : classic ; forceps"];
282 -> 289 [label="install : drainage"];
209 -> 249 [label="hold : classic ; forceps"];
209 -> 53 [label="hold : retractors"];
202 -> 246 [label="hold : classic ; forceps"];
202 -> 37 [label="hold : retractors"];
195 -> 29 [label="hold : retractors"];
181 -> 282 [label="hold : suction tube"];
181 -> 3 [label="hold : retractors"];
271 -> 269 [label="hold : classic ; forceps"];
271 -> 278 [label="install : classic ; forceps ; drainage"];
268 -> 271 [label="install : drainage"];
268 -> 266 [label="hold : classic ; forceps"];
264 -> 221 [label="hold : classic ; forceps"];
264 -> 273 [label="hold : retractors"];
269 -> 271 [label="hold : classic ; forceps"];
266 -> 268 [label="hold : classic ; forceps"];
232 -> 266 [label="coagulate : bipolar ; forceps"];
221 -> 264 [label="hold : classic ; forceps"];
221 -> 262 [label="hold : retractors"];
234 -> 223 [label="hold : classic ; forceps"];
230 -> 75 [label="hold : classic ; forceps"];
256 -> 258 [label="hold : retractors"];
217 -> 187 [label="hold : classic ; forceps"];
217 -> 254 [label="install : classic ; forceps ; drainage"];
217 -> 252 [label="hold : retractors"];
213 -> 185 [label="hold : classic ; forceps"];
247 -> 249 [label="hold : retractors"];
244 -> 246 [label="hold : retractors"];
197 -> 29 [label="hold : classic ; forceps"];
197 -> 242 [label="hold : retractors"];
183 -> 3 [label="hold : classic ; forceps"];
183 -> 239 [label="hold : retractors"];
80 -> 237 [label="install : drainage"];
80 -> 78 [label="remove : classic ; forceps ; drape"];
223 -> 234 [label="hold : classic ; forceps"];
223 -> 232 [label="swab : classic ; forceps ; cottonoids"];
75 -> 230 [label="hold : classic ; forceps"];
75 -> 228 [label="swab : classic ; forceps ; cottonoids"];
75 -> 226 [label="install : drainage"];
75 -> 70 [label="remove : classic ; forceps ; drape"];
218 -> 223 [label="hold : suction tube"];
218 -> 221 [label="swab : classic ; forceps ; cottonoids"];
218 -> 118 [label="hold : retractors"];
187 -> 217 [label="hold : classic ; forceps"];
187 -> 115 [label="hold : retractors"];
185 -> 3 [label="coagulate : bipolar ; forceps"];
185 -> 213 [label="hold : classic ; forceps"];
204 -> 211 [label="irrigate : saline solution"];
53 -> 209 [label="hold : retractors"];
53 -> 207 [label="install : drainage"];
53 -> 35 [label="remove : classic ; forceps ; drape"];
37 -> 204 [label="hold : suction tube"];
37 -> 202 [label="hold : retractors"];
37 -> 200 [label="install : drainage"];
37 -> 11 [label="remove : classic ; forceps ; drape"];
29 -> 197 [label="hold : classic ; forceps"];
29 -> 195 [label="hold : retractors"];
29 -> 193 [label="install : drainage"];
29 -> 23 [label="remove : classic ; forceps ; drape"];
25 -> 190 [label="install : drainage"];
25 -> 15 [label="remove : classic ; forceps ; drape"];
3 -> 187 [label="install : drainage"];
3 -> 185 [label="coagulate : bipolar ; forceps"];
3 -> 183 [label="hold : classic ; forceps"];
3 -> 181 [label="hold : retractors"];
3 -> 179 [label="install : drainage"];
3 -> 1 [label="remove : classic ; forceps ; drape"];
175 -> 171 [label="hold : retractors"];
171 -> 175 [label="hold : retractors"];
171 -> 173 [label="remove : classic ; forceps ; drape"];
160 -> 145 [label="hold : classic ; forceps"];
157 -> 150 [label="sew : needle-holders"];
157 -> 153 [label="hold : classic ; forceps"];
150 -> 157 [label="sew : needle-holders"];
150 -> 148 [label="hold : classic ; forceps"];
143 -> 136 [label="hold : classic ; forceps"];
134 -> 132 [label="hold : classic ; forceps"];
147 -> 145 [label="coagulate : bipolar ; forceps"];
147 -> 154 [label="sew : needle-holders"];
145 -> 148 [label="sew : needle-holders"];
145 -> 160 [label="hold : classic ; forceps"];
153 -> 148 [label="sew : needle-holders"];
153 -> 157 [label="hold : classic ; forceps"];
154 -> 138 [label="hold : classic ; forceps"];
148 -> 153 [label="sew : needle-holders"];
148 -> 132 [label="hold : classic ; forceps"];
148 -> 150 [label="hold : classic ; forceps"];
140 -> 147 [label="hold : classic ; forceps"];
136 -> 145 [label="hold : classic ; forceps"];
136 -> 143 [label="hold : classic ; forceps"];
97 -> 94 [label="hold : retractors"];
138 -> 140 [label="sew : needle-holders"];
131 -> 138 [label="remove : drape"];
132 -> 136 [label="sew : needle-holders"];
132 -> 134 [label="hold : classic ; forceps"];
128 -> 131 [label="hold : suction tube"];
92 -> 62 [label="hold : retractors"];
88 -> 128 [label="coagulate : bipolar ; forceps"];
88 -> 86 [label="hold : retractors"];
85 -> 83 [label="hold : retractors"];
85 -> 124 [label="install : drainage"];
73 -> 71 [label="hold : retractors"];
73 -> 121 [label="install : drainage"];
67 -> 65 [label="hold : retractors"];
67 -> 118 [label="remove : classic ; forceps ; drape"];
64 -> 9 [label="hold : retractors"];
64 -> 115 [label="remove : classic ; forceps ; drape"];
60 -> 58 [label="hold : retractors"];
57 -> 35 [label="hold : retractors"];
49 -> 88 [label="swab : classic ; forceps ; cottonoids"];
49 -> 21 [label="hold : retractors"];
47 -> 85 [label="swab : classic ; forceps ; cottonoids"];
47 -> 45 [label="hold : retractors"];
41 -> 60 [label="install : fluoroscopy"];
41 -> 67 [label="irrigate : saline solution"];
41 -> 11 [label="hold : retractors"];
33 -> 23 [label="hold : retractors"];
19 -> 17 [label="hold : retractors"];
7 -> 1 [label="hold : retractors"];
100 -> 78 [label="swab : classic ; forceps ; cottonoids"];
94 -> 100 [label="hold : suction tube"];
94 -> 71 [label="swab : classic ; forceps ; cottonoids"];
94 -> 97 [label="hold : retractors"];
90 -> 68 [label="swab : classic ; forceps ; cottonoids"];
62 -> 94 [label="irrigate : saline solution"];
62 -> 92 [label="hold : retractors"];
51 -> 90 [label="irrigate : saline solution"];
86 -> 88 [label="hold : retractors"];
83 -> 85 [label="hold : retractors"];
78 -> 82 [label="install : drainage"];
78 -> 80 [label="remove : classic ; forceps ; drape"];
70 -> 77 [label="install : drainage"];
70 -> 75 [label="remove : classic ; forceps ; drape"];
71 -> 73 [label="hold : retractors"];
68 -> 70 [label="install : fluoroscopy"];
65 -> 67 [label="hold : retractors"];
9 -> 64 [label="hold : retractors"];
58 -> 62 [label="swab : classic ; forceps ; cottonoids"];
58 -> 60 [label="hold : retractors"];
35 -> 57 [label="hold : retractors"];
35 -> 55 [label="install : drainage"];
35 -> 53 [label="remove : classic ; forceps ; drape"];
43 -> 51 [label="swab : classic ; forceps ; cottonoids"];
21 -> 49 [label="hold : retractors"];
45 -> 47 [label="hold : retractors"];
11 -> 45 [label="install : retractors"];
11 -> 43 [label="hold : suction tube"];
11 -> 41 [label="hold : retractors"];
11 -> 39 [label="install : drainage"];
11 -> 37 [label="remove : classic ; forceps ; drape"];
23 -> 35 [label="remove : retractors"];
23 -> 33 [label="hold : retractors"];
23 -> 31 [label="install : drainage"];
23 -> 29 [label="remove : classic ; forceps ; drape"];
15 -> 27 [label="install : drainage"];
15 -> 25 [label="remove : classic ; forceps ; drape"];
13 -> 23 [label="irrigate : saline solution"];
17 -> 21 [label="remove : retractors"];
17 -> 19 [label="hold : retractors"];
1 -> 17 [label="hold : suction tube"];
1 -> 15 [label="coagulate : monopolar ; forceps"];
1 -> 13 [label="hold : suction tube"];
1 -> 11 [label="remove : retractors"];
1 -> 9 [label="install : drainage"];
1 -> 7 [label="hold : retractors"];
1 -> 5 [label="install : drainage"];
1 -> 3 [label="remove : classic ; forceps ; drape"];

}
    